<svg width="1440" height="432" viewBox="0 0 1440 432" fill="none" xmlns="http://www.w3.org/2000/svg">
<g clip-path="url(#clip0_2471_10006)">
<rect width="1440" height="782" fill="#C4C4C4"/>
<g clip-path="url(#clip1_2471_10006)">
<path fill-rule="evenodd" clip-rule="evenodd" d="M1440 453.141C1361.61 485.108 1199.7 542.717 995.592 569.452L992.241 569.887L988.906 570.313L985.579 570.734L982.257 571.145L978.937 571.552L975.619 571.951L972.302 572.344L968.985 572.729L965.666 573.109L962.345 573.483L959.021 573.851L954.179 574.375L950.904 574.721L947.624 575.061L944.336 575.397L941.041 575.726L937.742 576.049L934.436 576.367L931.124 576.678L927.805 576.984L924.481 577.284L921.151 577.577L917.813 577.865L914.471 578.145L911.121 578.421L907.767 578.689L904.406 578.953L901.04 579.208L897.667 579.459L894.289 579.701L890.905 579.939L887.515 580.168L884.12 580.393L880.72 580.609L877.313 580.82L873.9 581.023L870.483 581.221L867.059 581.411L863.63 581.595L860.195 581.77L856.755 581.94L853.311 582.102L849.859 582.256L846.403 582.406L842.943 582.546L839.477 582.681L836.005 582.807L832.527 582.926L829.045 583.038L825.558 583.142L822.066 583.239L818.569 583.329L815.066 583.411L811.56 583.485L808.047 583.552L804.529 583.611L801.009 583.663L797.481 583.706L793.95 583.742L790.413 583.77L786.872 583.791L783.35 583.803L777.208 583.811L773.901 583.825L770.72 583.852L768.033 583.881L765.014 583.924L762.179 583.973L759.555 584.025L756.346 584.101L753.741 584.168L750.552 584.261L747.874 584.348L744.841 584.454L742.023 584.561L739.355 584.671L736.193 584.81L733.592 584.931L730.403 585.09L727.733 585.231L724.692 585.399L721.886 585.562L719.188 585.727L716.065 585.927L713.47 586.099L710.281 586.322L707.619 586.513L704.576 586.742L701.784 586.96L699.07 587.178L695.974 587.437L693.383 587.658L690.204 587.941L687.547 588.184L684.511 588.469L681.726 588.739L679.009 589.009L675.933 589.322L673.345 589.592L670.18 589.933L667.526 590.224L664.508 590.564L661.726 590.885L659.022 591.202L655.953 591.571L653.37 591.889L650.225 592.282L647.571 592.621L644.576 593.012L641.794 593.381L639.112 593.744L636.047 594.167L633.446 594.53L630.346 594.974L627.692 595.359L624.727 595.797L621.942 596.216L619.255 596.625L616.224 597.094L613.591 597.508L610.554 597.993L607.9 598.424L604.97 598.905L602.181 599.37L599.463 599.829L596.496 600.338L593.827 600.802L590.861 601.324L588.198 601.799L585.315 602.322L582.52 602.833L579.771 603.342L576.87 603.886L574.165 604.398L571.274 604.955L568.568 605.481L565.769 606.03L562.969 606.587L560.19 607.145L557.359 607.722L554.617 608.283L551.804 608.868C522.124 615.062 492.89 622.2 464.293 630.045L461.488 630.817L458.207 631.729L456.617 632.173L453.66 633.002L450.523 633.891L447.18 634.844L445.694 635.27L442.848 636.092L439.592 637.039L438.047 637.489L435.096 638.357L431.981 639.279L428.646 640.275L427.245 640.694L424.385 641.558L422.953 641.992C221.859 703.009 57.9787 794.753 0 829.313V-670H1440V453.141Z" fill="#7AC200"/>
<path fill-rule="evenodd" clip-rule="evenodd" d="M421.944 642.276C383.283 560.62 351.305 456.881 380.838 372.254C439.031 205.503 253.758 45.7023 293.898 -48.6176C334.038 -142.939 472.128 -191.896 655.811 -204.777C839.493 -217.657 706.271 -428.376 766.526 -514.012C826.78 -599.648 980.14 -697.331 1098.11 -593.593C1216.08 -489.854 1293.54 -404.541 1448.64 -448.26C1464.48 -452.725 1478.7 -448.887 1491.47 -438.389V430.61C1491.47 430.61 1179.57 583.789 779.764 583.789C656.824 583.789 533.626 608.311 421.944 642.276Z" fill="#69A700"/>
<path fill-rule="evenodd" clip-rule="evenodd" d="M-38.7158 160.611L-33.4209 47.8622C-33.4209 47.8622 277.53 -162.569 523.335 113.754C585.21 183.31 450.373 280.109 450.373 280.109C450.373 280.109 803.699 53.742 1188.92 533.36C1073.95 561.205 933.355 583.804 779.789 583.804C379.983 583.804 -22.5403 843.134 -22.5403 843.134L-38.7158 160.611Z" fill="#006142"/>
<path fill-rule="evenodd" clip-rule="evenodd" d="M373.057 -690.514C373.057 -690.514 330.927 -614.568 285.466 -561.903C266.288 -539.686 246.573 -521.573 229.198 -515.462C211.479 -509.229 180.123 -505.008 148.535 -494.285C116.299 -483.342 83.8977 -465.642 64.8638 -432.75C39.635 -389.15 37.6262 -318.401 92.1317 -200.196C158.984 -55.2133 181.551 57.1162 173.595 161.828C165.631 266.638 127.134 363.774 72.1661 478.299C16.3833 594.52 15.5913 668.975 28.4865 714.313C41.6582 760.622 69.1853 777.159 69.1853 777.159C70.5878 778.011 72.3331 777.406 73.0805 775.811C73.8293 774.216 73.2979 772.229 71.8953 771.379C71.8953 771.379 46.3123 755.698 33.9672 712.297C21.3456 667.925 22.6301 595.18 77.2219 481.438C132.627 365.999 171.306 268.037 179.334 162.393C187.368 56.6511 164.742 -56.8298 97.2321 -203.239C44.2459 -318.148 45.1502 -386.764 69.6763 -429.148C87.9571 -460.742 119.22 -477.497 150.182 -488.007C181.793 -498.737 213.169 -502.965 230.9 -509.202C248.978 -515.562 269.622 -534.197 289.577 -557.314C335.427 -610.429 377.927 -687.019 377.927 -687.019C378.777 -688.547 378.373 -690.572 377.028 -691.536C375.685 -692.503 373.905 -692.044 373.057 -690.514Z" fill="#FFFC00"/>
<path fill-rule="evenodd" clip-rule="evenodd" d="M1420.63 -410.396C1420.63 -410.396 1341.57 -417.488 1279.97 -436.075C1253.99 -443.915 1231.1 -453.74 1218.91 -466.078C1206.47 -478.658 1189.98 -503.464 1168.13 -526.037C1145.82 -549.074 1117.98 -569.727 1083.41 -573.461C1037.59 -578.41 979.472 -553.686 906.493 -463.696C816.981 -353.321 735.442 -292.396 647.343 -259.996C559.161 -227.566 464.461 -223.691 348.813 -227.181C231.453 -230.723 170.839 -203.592 139.507 -175.816C107.505 -147.445 105.593 -118.111 105.593 -118.111C105.489 -116.613 106.706 -115.37 108.309 -115.337C109.913 -115.302 111.3 -116.491 111.403 -117.988C111.403 -117.988 113.432 -145.367 143.425 -171.957C174.088 -199.143 233.523 -225.221 348.38 -221.755C464.95 -218.238 560.395 -222.269 649.278 -254.957C738.244 -287.676 820.691 -349.079 911.084 -460.541C982.028 -548.022 1037.96 -572.878 1082.5 -568.067C1115.71 -564.482 1142.31 -544.435 1163.73 -522.308C1185.6 -499.717 1202.11 -474.898 1214.55 -462.308C1227.24 -449.473 1250.93 -439.062 1277.97 -430.902C1340.09 -412.157 1419.83 -404.994 1419.83 -404.994C1421.42 -404.849 1422.89 -405.944 1423.11 -407.436C1423.33 -408.927 1422.22 -410.253 1420.63 -410.396Z" fill="#97EC07"/>
<path fill-rule="evenodd" clip-rule="evenodd" d="M279.983 597.909C279.983 597.909 259.865 475.837 402.432 458.283C545 440.727 561.973 360.447 561.973 360.447C561.973 360.447 501.168 664.058 285.875 606.84L279.983 597.909Z" fill="#F26147"/>
<path fill-rule="evenodd" clip-rule="evenodd" d="M598.531 291.053C598.531 291.053 543.615 225.352 539.19 197.671C534.765 169.99 407.191 -171.355 407.191 -171.355C407.191 -171.355 370.392 -261.582 553.463 -292.462C759.961 -327.29 1218.52 -341.459 1414.68 -235.196C1421.91 -231.282 1300.3 273.249 1300.3 273.249L1111.19 315.415L598.531 291.053Z" fill="#287554"/>
<path fill-rule="evenodd" clip-rule="evenodd" d="M190.928 66.0631C210.902 59.9523 233.124 65.804 248.786 83.6176C264.448 101.431 269.593 126.706 264.22 149.424C244.246 155.535 222.024 149.683 206.362 131.869C190.701 114.056 185.556 88.7811 190.928 66.0631Z" fill="#FFE944"/>
<path fill-rule="evenodd" clip-rule="evenodd" d="M163.172 67.3345C171.15 89.3715 168.946 115.178 155.402 134.762C141.858 154.346 120.397 162.759 99.792 158.98C91.8141 136.943 94.0186 111.136 107.562 91.5521C121.106 71.9682 142.568 63.555 163.172 67.3345Z" fill="#FFE944"/>
<path fill-rule="evenodd" clip-rule="evenodd" d="M163.054 170.757C165.707 193.822 157.653 218.179 140.068 233.936C122.483 249.692 99.8092 252.867 80.7619 244.492C78.1087 221.427 86.1624 197.069 103.748 181.313C121.333 165.556 144.006 162.381 163.054 170.757Z" fill="#FFE944"/>
<path fill-rule="evenodd" clip-rule="evenodd" d="M143.09 263.373C145.191 286.447 136.563 310.554 118.618 325.853C100.672 341.151 77.9428 343.776 59.1122 334.964C57.0117 311.89 65.6393 287.782 83.5848 272.484C101.53 257.186 124.26 254.561 143.09 263.373Z" fill="#FFE944"/>
<path fill-rule="evenodd" clip-rule="evenodd" d="M105.166 361.09C107.266 384.164 98.6386 408.271 80.6931 423.569C62.7476 438.867 40.018 441.492 21.1874 432.68C19.0869 409.606 27.7145 385.499 45.66 370.2C63.6055 354.902 86.3349 352.278 105.166 361.09Z" fill="#FFE944"/>
<path fill-rule="evenodd" clip-rule="evenodd" d="M61.0444 457.182C63.1449 480.256 54.5175 504.363 36.572 519.661C18.6265 534.96 -4.1031 537.584 -22.9337 528.772C-25.0342 505.698 -16.4066 481.591 1.53888 466.293C19.4844 450.994 42.2138 448.37 61.0444 457.182Z" fill="#FFE944"/>
<path fill-rule="evenodd" clip-rule="evenodd" d="M188.863 158.382C208.837 152.271 231.058 158.123 246.72 175.936C262.382 193.75 267.527 219.025 262.155 241.743C242.181 247.853 219.959 242.002 204.297 224.188C188.635 206.374 183.49 181.1 188.863 158.382Z" fill="#FFE944"/>
<path fill-rule="evenodd" clip-rule="evenodd" d="M403.343 126.824C419.981 156.135 423.661 194.046 410.207 226.502C396.753 258.957 369.565 277.757 340.385 278.703C323.748 249.391 320.068 211.479 333.522 179.024C346.975 146.569 374.164 127.769 403.343 126.824Z" fill="white"/>
<path fill-rule="evenodd" clip-rule="evenodd" d="M180.109 243.03C200.715 239.258 222.173 247.679 235.71 267.268C249.246 286.858 251.441 312.665 243.456 334.7C222.85 338.472 201.391 330.05 187.855 310.461C174.318 290.872 172.123 265.065 180.109 243.03Z" fill="#FFE944"/>
<path fill-rule="evenodd" clip-rule="evenodd" d="M157.671 323.684C178.431 321.559 199.093 331.69 211.022 352.353C222.951 373.015 223.133 398.987 213.495 420.375C192.735 422.5 172.073 412.368 160.143 391.706C148.214 371.044 148.032 345.071 157.671 323.684Z" fill="#FFE944"/>
<path fill-rule="evenodd" clip-rule="evenodd" d="M129.054 398.858C149.347 398.687 168.575 410.7 178.502 432.371C188.429 454.043 186.546 479.898 175.507 500.273C155.213 500.444 135.985 488.431 126.059 466.76C116.132 445.088 118.014 419.233 129.054 398.858Z" fill="#FFE944"/>
<path fill-rule="evenodd" clip-rule="evenodd" d="M516.182 326.529C516.182 326.529 741.144 185.329 843.086 79.6381C974.818 -56.9347 1105.49 -143.583 1245.57 -134.48C1384.39 -125.46 1515.44 13.1484 1515.44 13.1484L1466.71 435.658C1466.71 435.658 1346.54 468.787 1207.94 482.178C1151.44 487.637 996.281 428.245 946.248 407.142C771.727 333.531 516.182 326.529 516.182 326.529Z" fill="#C5F098"/>
<path fill-rule="evenodd" clip-rule="evenodd" d="M1469.12 353.224C1469.12 353.224 1317.42 366.369 1193.46 290.789C1121.75 247.071 1160.82 99.7159 1225.29 124.459C1289.76 149.201 1411.14 237.432 1480.37 206.175C1549.6 174.92 1469.12 353.224 1469.12 353.224Z" fill="#00441D"/>
<path fill-rule="evenodd" clip-rule="evenodd" d="M1458.64 181.193C1458.64 181.193 1273.1 134.568 1207.52 -80.1195C1183.22 -159.677 1281.49 -232.617 1316.33 -162.2C1351.17 -91.7809 1393.24 25.7045 1505.03 35.0713C1616.82 44.438 1458.64 181.193 1458.64 181.193Z" fill="#00441D"/>
<path fill-rule="evenodd" clip-rule="evenodd" d="M1268.6 512.192C1254.76 487.091 1235.89 447.34 1239.72 423.133C1245.64 385.667 1273.09 377.313 1317.47 387.305C1361.85 397.299 1435.99 393.349 1457.67 379.291C1472.68 369.576 1470.26 413.529 1467.34 441.609C1432.91 456.633 1363.23 484.842 1268.6 512.192Z" fill="#00441D"/>
<path fill-rule="evenodd" clip-rule="evenodd" d="M421.944 642.276C383.283 560.62 351.305 456.881 380.838 372.254C439.031 205.503 253.758 45.7023 293.898 -48.6176C334.038 -142.939 472.128 -191.896 655.811 -204.777C839.493 -217.657 706.271 -428.376 766.526 -514.012C826.78 -599.648 980.14 -697.331 1098.11 -593.593C1216.08 -489.854 1293.54 -404.541 1448.64 -448.26C1464.48 -452.725 1478.7 -448.887 1491.47 -438.389V430.61C1491.47 430.61 1179.57 583.789 779.764 583.789C656.824 583.789 533.626 608.311 421.944 642.276Z" fill="#69A700"/>
<path fill-rule="evenodd" clip-rule="evenodd" d="M-38.7158 160.611L-33.4209 47.8622C-33.4209 47.8622 277.53 -162.569 523.335 113.754C585.21 183.31 450.373 280.109 450.373 280.109C450.373 280.109 803.699 53.742 1188.92 533.36C1073.95 561.205 933.355 583.804 779.789 583.804C379.983 583.804 -22.5403 843.134 -22.5403 843.134L-38.7158 160.611Z" fill="#006142"/>
<path fill-rule="evenodd" clip-rule="evenodd" d="M373.057 -690.514C373.057 -690.514 330.927 -614.568 285.466 -561.903C266.288 -539.686 246.573 -521.573 229.198 -515.462C211.479 -509.229 180.123 -505.008 148.535 -494.285C116.299 -483.342 83.8977 -465.642 64.8638 -432.75C39.635 -389.15 37.6262 -318.401 92.1317 -200.196C158.984 -55.2133 181.551 57.1162 173.595 161.828C165.631 266.638 127.134 363.774 72.1661 478.299C16.3833 594.52 15.5913 668.975 28.4865 714.313C41.6582 760.622 69.1853 777.159 69.1853 777.159C70.5878 778.011 72.3331 777.406 73.0805 775.811C73.8293 774.216 73.2979 772.229 71.8953 771.379C71.8953 771.379 46.3123 755.698 33.9672 712.297C21.3456 667.925 22.6301 595.18 77.2219 481.438C132.627 365.999 171.306 268.037 179.334 162.393C187.368 56.6511 164.742 -56.8298 97.2321 -203.239C44.2459 -318.148 45.1502 -386.764 69.6763 -429.148C87.9571 -460.742 119.22 -477.497 150.182 -488.007C181.793 -498.737 213.169 -502.965 230.9 -509.202C248.978 -515.562 269.622 -534.197 289.577 -557.314C335.427 -610.429 377.927 -687.019 377.927 -687.019C378.777 -688.547 378.373 -690.572 377.028 -691.536C375.685 -692.503 373.905 -692.044 373.057 -690.514Z" fill="#FFFC00"/>
<path fill-rule="evenodd" clip-rule="evenodd" d="M1420.63 -410.396C1420.63 -410.396 1341.57 -417.488 1279.97 -436.075C1253.99 -443.915 1231.1 -453.74 1218.91 -466.078C1206.47 -478.658 1189.98 -503.464 1168.13 -526.037C1145.82 -549.074 1117.98 -569.727 1083.41 -573.461C1037.59 -578.41 979.472 -553.686 906.493 -463.696C816.981 -353.321 735.442 -292.396 647.343 -259.996C559.161 -227.566 464.461 -223.691 348.813 -227.181C231.453 -230.723 170.839 -203.592 139.507 -175.816C107.505 -147.445 105.593 -118.111 105.593 -118.111C105.489 -116.613 106.706 -115.37 108.309 -115.337C109.913 -115.302 111.3 -116.491 111.403 -117.988C111.403 -117.988 113.432 -145.367 143.425 -171.957C174.088 -199.143 233.523 -225.221 348.38 -221.755C464.95 -218.238 560.395 -222.269 649.278 -254.957C738.244 -287.676 820.691 -349.079 911.084 -460.541C982.028 -548.022 1037.96 -572.878 1082.5 -568.067C1115.71 -564.482 1142.31 -544.435 1163.73 -522.308C1185.6 -499.717 1202.11 -474.898 1214.55 -462.308C1227.24 -449.473 1250.93 -439.062 1277.97 -430.902C1340.09 -412.157 1419.83 -404.994 1419.83 -404.994C1421.42 -404.849 1422.89 -405.944 1423.11 -407.436C1423.33 -408.927 1422.22 -410.253 1420.63 -410.396Z" fill="#97EC07"/>
<path fill-rule="evenodd" clip-rule="evenodd" d="M1440 63.7231C1316.62 217.087 1200.91 304.854 1078.18 351.385C932.84 406.49 777.693 403.797 588.473 384.001C397.56 364.027 298.053 411.12 246.221 462.915C193.715 515.383 189.677 572.988 189.677 572.988C189.548 574.789 190.727 576.373 192.311 576.52C193.897 576.669 195.288 575.326 195.419 573.525C195.419 573.525 199.534 518.289 250.022 467.837C301.184 416.713 399.506 370.81 587.946 390.524C778.076 410.417 933.962 412.969 1080 357.6C1202.12 311.302 1317.39 224.528 1440 73.4028V63.7231Z" fill="#7AC200"/>
<path fill-rule="evenodd" clip-rule="evenodd" d="M279.983 597.909C279.983 597.909 259.865 475.837 402.432 458.283C545 440.727 561.973 360.447 561.973 360.447C561.973 360.447 501.168 664.058 285.875 606.84L279.983 597.909Z" fill="#F26147"/>
<path fill-rule="evenodd" clip-rule="evenodd" d="M598.531 291.053C598.531 291.053 543.615 225.352 539.19 197.671C534.765 169.99 407.191 -171.355 407.191 -171.355C407.191 -171.355 370.392 -261.582 553.463 -292.462C759.961 -327.29 1218.52 -341.459 1414.68 -235.196C1421.91 -231.282 1300.3 273.249 1300.3 273.249L1111.19 315.415L598.531 291.053Z" fill="#287554"/>
<path fill-rule="evenodd" clip-rule="evenodd" d="M190.928 66.0631C210.902 59.9523 233.124 65.804 248.786 83.6176C264.448 101.431 269.593 126.706 264.22 149.424C244.246 155.535 222.024 149.683 206.362 131.869C190.701 114.056 185.556 88.7811 190.928 66.0631Z" fill="#FFE944"/>
<path fill-rule="evenodd" clip-rule="evenodd" d="M163.172 67.3345C171.15 89.3715 168.946 115.178 155.402 134.762C141.858 154.346 120.397 162.759 99.792 158.98C91.8141 136.943 94.0186 111.136 107.562 91.5521C121.106 71.9682 142.568 63.555 163.172 67.3345Z" fill="#FFE944"/>
<path fill-rule="evenodd" clip-rule="evenodd" d="M163.054 170.757C165.707 193.822 157.653 218.179 140.068 233.936C122.483 249.692 99.8092 252.867 80.7619 244.492C78.1087 221.427 86.1624 197.069 103.748 181.313C121.333 165.556 144.006 162.381 163.054 170.757Z" fill="#FFE944"/>
<path fill-rule="evenodd" clip-rule="evenodd" d="M143.09 263.373C145.191 286.447 136.563 310.554 118.618 325.853C100.672 341.151 77.9428 343.776 59.1122 334.964C57.0117 311.89 65.6393 287.782 83.5848 272.484C101.53 257.186 124.26 254.561 143.09 263.373Z" fill="#FFE944"/>
<path fill-rule="evenodd" clip-rule="evenodd" d="M105.166 361.09C107.266 384.164 98.6386 408.271 80.6931 423.569C62.7476 438.867 40.018 441.492 21.1874 432.68C19.0869 409.606 27.7145 385.499 45.66 370.2C63.6055 354.902 86.3349 352.278 105.166 361.09Z" fill="#FFE944"/>
<path fill-rule="evenodd" clip-rule="evenodd" d="M61.0444 457.182C63.1449 480.256 54.5175 504.363 36.572 519.661C18.6265 534.96 -4.1031 537.584 -22.9337 528.772C-25.0342 505.698 -16.4066 481.591 1.53888 466.293C19.4844 450.994 42.2138 448.37 61.0444 457.182Z" fill="#FFE944"/>
<path fill-rule="evenodd" clip-rule="evenodd" d="M188.863 158.382C208.837 152.271 231.058 158.123 246.72 175.936C262.382 193.75 267.527 219.025 262.155 241.743C242.181 247.853 219.959 242.002 204.297 224.188C188.635 206.374 183.49 181.1 188.863 158.382Z" fill="#FFE944"/>
<path fill-rule="evenodd" clip-rule="evenodd" d="M403.343 126.824C419.981 156.135 423.661 194.046 410.207 226.502C396.753 258.957 369.565 277.757 340.385 278.703C323.748 249.391 320.068 211.479 333.522 179.024C346.975 146.569 374.164 127.769 403.343 126.824Z" fill="white"/>
<path fill-rule="evenodd" clip-rule="evenodd" d="M180.109 243.03C200.715 239.258 222.173 247.679 235.71 267.268C249.246 286.858 251.441 312.665 243.456 334.7C222.85 338.472 201.391 330.05 187.855 310.461C174.318 290.872 172.123 265.065 180.109 243.03Z" fill="#FFE944"/>
<path fill-rule="evenodd" clip-rule="evenodd" d="M157.671 323.684C178.431 321.559 199.093 331.69 211.022 352.353C222.951 373.015 223.133 398.987 213.495 420.375C192.735 422.5 172.073 412.368 160.143 391.706C148.214 371.044 148.032 345.071 157.671 323.684Z" fill="#FFE944"/>
<path fill-rule="evenodd" clip-rule="evenodd" d="M129.054 398.858C149.347 398.687 168.575 410.7 178.502 432.371C188.429 454.043 186.546 479.898 175.507 500.273C155.213 500.444 135.985 488.431 126.059 466.76C116.132 445.088 118.014 419.233 129.054 398.858Z" fill="#FFE944"/>
<path fill-rule="evenodd" clip-rule="evenodd" d="M516.182 326.529C516.182 326.529 741.144 185.329 843.086 79.6381C974.818 -56.9347 1105.49 -143.583 1245.57 -134.48C1384.39 -125.46 1515.44 13.1484 1515.44 13.1484L1466.71 435.658C1466.71 435.658 1346.54 468.787 1207.94 482.178C1151.44 487.637 996.281 428.245 946.248 407.142C771.727 333.531 516.182 326.529 516.182 326.529Z" fill="#C5F098"/>
<path fill-rule="evenodd" clip-rule="evenodd" d="M1469.12 353.224C1469.12 353.224 1317.42 366.369 1193.46 290.789C1121.75 247.071 1160.82 99.7159 1225.29 124.459C1289.76 149.201 1411.14 237.432 1480.37 206.175C1549.6 174.92 1469.12 353.224 1469.12 353.224Z" fill="#00441D"/>
<path fill-rule="evenodd" clip-rule="evenodd" d="M1458.64 181.193C1458.64 181.193 1273.1 134.568 1207.52 -80.1195C1183.22 -159.677 1281.49 -232.617 1316.33 -162.2C1351.17 -91.7809 1393.24 25.7045 1505.03 35.0713C1616.82 44.438 1458.64 181.193 1458.64 181.193Z" fill="#00441D"/>
<path fill-rule="evenodd" clip-rule="evenodd" d="M1268.6 512.192C1254.76 487.091 1235.89 447.34 1239.72 423.133C1245.64 385.667 1273.09 377.313 1317.47 387.305C1361.85 397.299 1435.99 393.349 1457.67 379.291C1472.68 369.576 1470.26 413.529 1467.34 441.609C1432.91 456.633 1363.23 484.842 1268.6 512.192Z" fill="#00441D"/>
<rect y="-126" width="1440" height="726" fill="url(#paint0_linear_2471_10006)"/>
</g>
</g>
<rect x="986" y="344" width="96" height="51" rx="15" fill="#FFE944"/>
<path d="M1007.67 377.048L1004.56 365.2H1006.47L1009 375.824H1008.9L1011.4 365.2H1013.32L1010.24 377.048H1007.67ZM1015.05 377V368.504H1016.76V377H1015.05ZM1015.91 366.744C1015.62 366.744 1015.36 366.664 1015.14 366.504C1014.93 366.339 1014.82 366.112 1014.82 365.824C1014.82 365.541 1014.93 365.32 1015.14 365.16C1015.36 364.995 1015.62 364.912 1015.91 364.912C1016.21 364.912 1016.46 364.995 1016.67 365.16C1016.89 365.32 1017 365.541 1017 365.824C1017 366.112 1016.89 366.339 1016.67 366.504C1016.46 366.664 1016.21 366.744 1015.91 366.744ZM1019.69 373.36V372.008H1025.95L1025.71 372.408C1025.71 372.376 1025.71 372.344 1025.71 372.312C1025.71 372.275 1025.71 372.243 1025.71 372.216C1025.71 371.784 1025.61 371.387 1025.43 371.024C1025.24 370.656 1024.96 370.363 1024.59 370.144C1024.22 369.92 1023.76 369.808 1023.2 369.808C1022.65 369.808 1022.16 369.928 1021.74 370.168C1021.32 370.403 1021 370.739 1020.76 371.176C1020.53 371.608 1020.42 372.128 1020.42 372.736C1020.42 373.355 1020.53 373.888 1020.75 374.336C1020.98 374.779 1021.3 375.12 1021.72 375.36C1022.14 375.6 1022.65 375.72 1023.23 375.72C1023.64 375.72 1024 375.68 1024.3 375.6C1024.6 375.515 1024.85 375.403 1025.04 375.264C1025.24 375.125 1025.39 374.976 1025.49 374.816C1025.59 374.651 1025.65 374.488 1025.67 374.328H1027.39C1027.36 374.675 1027.25 375.019 1027.05 375.36C1026.86 375.696 1026.58 376.003 1026.23 376.28C1025.87 376.552 1025.44 376.771 1024.93 376.936C1024.42 377.096 1023.84 377.176 1023.18 377.176C1022.29 377.176 1021.52 376.989 1020.85 376.616C1020.18 376.243 1019.66 375.725 1019.29 375.064C1018.92 374.397 1018.73 373.635 1018.73 372.776C1018.73 371.901 1018.92 371.133 1019.3 370.472C1019.68 369.811 1020.2 369.296 1020.87 368.928C1021.55 368.555 1022.32 368.368 1023.19 368.368C1024.07 368.368 1024.84 368.555 1025.48 368.928C1026.13 369.301 1026.63 369.816 1026.99 370.472C1027.34 371.128 1027.51 371.883 1027.51 372.736C1027.51 372.837 1027.51 372.955 1027.51 373.088C1027.5 373.221 1027.49 373.312 1027.48 373.36H1019.69ZM1036.09 377L1033.92 368.504H1035.33L1037.41 376.368H1037.12L1038.48 368.504H1040.28L1038.49 377H1036.09ZM1030.29 377L1028.49 368.504H1030.29L1031.67 376.368H1031.37L1033.44 368.504H1034.85L1032.7 377H1030.29ZM1048.77 377.168C1048.13 377.168 1047.56 377.067 1047.08 376.864C1046.6 376.661 1046.23 376.371 1045.96 375.992C1045.69 375.613 1045.56 375.157 1045.56 374.624C1045.56 374.053 1045.71 373.581 1046.01 373.208C1046.31 372.835 1046.73 372.547 1047.26 372.344C1047.79 372.136 1048.39 372 1049.07 371.936C1050.08 371.835 1050.79 371.736 1051.2 371.64C1051.62 371.544 1051.82 371.387 1051.82 371.168C1051.82 371.163 1051.82 371.157 1051.82 371.152C1051.82 370.72 1051.64 370.392 1051.27 370.168C1050.9 369.944 1050.38 369.832 1049.7 369.832C1048.98 369.832 1048.42 369.96 1048.02 370.216C1047.63 370.467 1047.44 370.867 1047.44 371.416H1045.74C1045.74 370.765 1045.9 370.213 1046.24 369.76C1046.58 369.307 1047.05 368.963 1047.65 368.728C1048.24 368.488 1048.93 368.368 1049.7 368.368C1050.41 368.368 1051.06 368.477 1051.64 368.696C1052.23 368.909 1052.69 369.229 1053.04 369.656C1053.39 370.083 1053.56 370.613 1053.56 371.248C1053.56 371.36 1053.56 371.472 1053.56 371.584C1053.56 371.691 1053.56 371.8 1053.56 371.912V375.304C1053.56 375.501 1053.57 375.693 1053.58 375.88C1053.6 376.061 1053.63 376.224 1053.67 376.368C1053.72 376.533 1053.78 376.669 1053.84 376.776C1053.91 376.883 1053.96 376.957 1054.01 377H1052.28C1052.25 376.968 1052.2 376.901 1052.14 376.8C1052.08 376.693 1052.02 376.571 1051.98 376.432C1051.93 376.299 1051.89 376.147 1051.86 375.976C1051.84 375.8 1051.83 375.611 1051.83 375.408L1052.15 375.632C1051.99 375.941 1051.75 376.211 1051.42 376.44C1051.1 376.669 1050.72 376.848 1050.26 376.976C1049.82 377.104 1049.32 377.168 1048.77 377.168ZM1049.13 375.728C1049.62 375.728 1050.07 375.651 1050.48 375.496C1050.89 375.336 1051.22 375.096 1051.46 374.776C1051.71 374.451 1051.83 374.043 1051.83 373.552V372.144L1052.24 372.68C1051.9 372.813 1051.48 372.923 1050.98 373.008C1050.49 373.088 1049.99 373.155 1049.46 373.208C1048.74 373.272 1048.2 373.397 1047.84 373.584C1047.48 373.765 1047.3 374.069 1047.3 374.496C1047.3 374.907 1047.44 375.216 1047.74 375.424C1048.05 375.627 1048.51 375.728 1049.13 375.728ZM1057.5 364.496V377H1055.79V364.496H1057.5ZM1061.66 364.496V377H1059.94V364.496H1061.66Z" fill="#130F26"/>
<path d="M1002.06 157H1027.61C1029.66 157 1030.76 156.18 1030.76 154.677V154.267C1030.76 150.851 1025.02 149.621 1025.02 143.882V68.8634H1036.09C1044.56 68.8634 1046.34 84.7143 1051.94 84.7143H1053.99C1055.9 84.7143 1057.13 83.4845 1056.72 81.2982L1053.85 63.8075C1053.44 61.0746 1052.21 59.9814 1049.48 59.9814H980.199C977.329 59.9814 976.236 61.0746 975.826 63.8075L973.366 81.1616C972.957 83.4845 974.186 84.7143 976.236 84.7143H978.149C983.752 84.7143 985.118 68.8634 993.59 68.8634H1004.52V143.882C1004.52 149.621 999.056 150.851 999.056 154.267V154.677C999.056 156.18 1000.15 157 1002.06 157ZM1070.87 158.366C1090.82 158.366 1105.58 143.882 1105.58 124.478C1105.58 105.075 1089.86 90.0435 1068.82 90.0435C1049.69 90.0435 1033.43 103.981 1033.43 123.795C1033.43 142.789 1048.87 158.366 1070.87 158.366ZM1073.33 152.354C1060.89 152.354 1053.51 129.944 1053.51 116.006C1053.51 103.025 1057.89 96.056 1066.08 96.056C1077.7 96.056 1085.08 117.646 1085.08 132.54C1085.08 145.112 1080.71 152.354 1073.33 152.354ZM1140.84 90.0435C1132.37 90.0435 1125.54 93.323 1121.85 99.0622L1121.98 93.323C1121.98 90.7268 1120.62 88.9504 1116.79 90.8634L1101.49 98.3789C1099.85 99.1988 1098.75 100.292 1098.75 101.658V102.342C1098.75 105.894 1105.04 106.304 1105.04 111.907V173.398C1105.04 179.273 1099.71 180.366 1099.71 183.783V184.329C1099.71 185.832 1100.94 186.652 1102.85 186.652H1127.59C1129.5 186.652 1130.73 185.832 1130.73 184.329V183.783C1130.73 180.366 1124.99 179.273 1124.99 173.398V153.037C1129.09 156.453 1134.28 158.366 1140.98 158.366C1158.06 158.366 1172.82 144.292 1172.82 123.112C1172.82 101.522 1156.69 90.0435 1140.84 90.0435ZM1138.93 152.491C1131.69 152.491 1124.99 143.882 1124.99 133.087V106.988C1125.81 100.429 1130.32 95.9193 1136.06 95.9193C1146.85 95.9193 1152.73 114.093 1152.73 131.311C1152.73 144.975 1147.67 152.491 1138.93 152.491Z" fill="white"/>
<path d="M994.547 234H1006.47C1007.86 234 1008.73 233.498 1008.73 232.619V232.493C1008.73 230.736 1004.09 230.861 1004.09 226.969V202.988H1017.9C1041.25 202.988 1054.81 193.195 1054.81 173.859C1054.81 153.017 1035.85 144.856 1015.39 144.856H994.547C993.04 144.856 992.161 145.233 992.161 146.112V146.363C992.161 148.121 996.681 148.372 996.681 152.013V226.969C996.681 230.861 992.161 230.736 992.161 232.493V232.619C992.161 233.498 993.04 234 994.547 234ZM1008.11 199.096C1005.6 199.096 1004.09 197.715 1004.09 195.204V152.264C1004.09 150.004 1004.84 148.748 1006.85 148.748H1015.39C1031.96 148.748 1047.03 156.784 1047.03 175.743C1047.03 191.06 1035.6 199.096 1017.9 199.096H1008.11ZM1095.98 225.086L1093.72 199.347C1092.22 182.523 1083.68 172.478 1068.74 172.478C1054.68 172.478 1047.39 180.388 1047.39 185.913C1047.39 188.047 1048.65 189.303 1050.91 189.303C1055.68 189.303 1054.17 175.743 1068.74 175.743C1079.91 175.743 1084.94 184.28 1086.32 199.472L1086.69 203.741C1083.18 200.1 1077.53 197.84 1070.25 197.84C1056.81 197.84 1047.02 204.495 1047.14 216.422C1047.14 228.099 1056.43 235.256 1070.37 235.256C1079.79 235.256 1086.32 231.363 1089.2 225.462C1089.46 233.372 1092.34 234.753 1097.24 234.753C1101.13 234.753 1103.39 234.126 1103.39 232.619C1103.39 229.731 1096.61 232.493 1095.98 225.086ZM1071.75 231.866C1061.33 231.866 1054.55 224.835 1054.55 215.167C1054.55 206.88 1061.33 201.23 1071.38 201.23C1081.17 201.23 1087.45 207.006 1087.57 213.535L1087.95 217.301C1088.07 225.588 1081.55 231.866 1071.75 231.866ZM1122.63 235.256C1136.44 235.256 1144.61 225.965 1146.87 217.301C1147.49 215.041 1144.35 214.79 1143.6 216.548C1140.59 223.83 1134.31 229.731 1125.02 229.731C1110.58 229.731 1099.53 218.431 1099.53 200.477C1099.53 186.54 1108.7 175.743 1120.75 175.868C1136.82 175.868 1137.07 190.307 1142.47 190.558C1144.86 190.558 1145.99 189.051 1145.99 187.043C1145.99 181.518 1135.69 172.478 1122.38 172.478C1105.18 172.478 1092.12 184.783 1092.12 203.49C1092.12 222.072 1106.06 235.256 1122.63 235.256ZM1192.44 227.973L1167.58 197.087L1185.16 180.89C1188.55 177.752 1192.82 176.998 1192.82 175.115V174.864C1192.82 173.985 1192.19 173.734 1191.31 173.734H1179.13C1178.13 173.734 1177.5 173.985 1177.5 174.864V175.24C1177.5 177.124 1183.02 178.128 1179.88 180.89L1151.89 206.001V141.717C1151.89 140.211 1150.63 139.206 1148.5 140.211L1141.46 143.601C1140.46 143.977 1139.96 144.354 1139.96 145.107V145.358C1139.96 146.991 1144.48 147.242 1144.48 151.887V226.843C1144.48 230.861 1140.21 230.233 1140.21 232.242V232.619C1140.21 233.372 1140.96 234 1142.47 234H1154.15C1155.65 234 1156.53 233.372 1156.53 232.619V232.242C1156.53 230.233 1151.89 230.861 1151.89 226.843V211.4L1162.56 201.607L1184.53 227.973C1186.91 230.736 1182.39 230.61 1182.39 232.619V232.87C1182.39 233.498 1183.02 234 1183.9 234H1197.08C1197.96 234 1198.59 233.623 1198.59 232.87V232.619C1198.59 230.736 1194.82 230.987 1192.44 227.973ZM1234.54 225.086L1232.28 199.347C1230.77 182.523 1222.23 172.478 1207.29 172.478C1193.23 172.478 1185.95 180.388 1185.95 185.913C1185.95 188.047 1187.2 189.303 1189.46 189.303C1194.23 189.303 1192.73 175.743 1207.29 175.743C1218.46 175.743 1223.49 184.28 1224.87 199.472L1225.24 203.741C1221.73 200.1 1216.08 197.84 1208.8 197.84C1195.36 197.84 1185.57 204.495 1185.69 216.422C1185.69 228.099 1194.99 235.256 1208.92 235.256C1218.34 235.256 1224.87 231.363 1227.76 225.462C1228.01 233.372 1230.89 234.753 1235.79 234.753C1239.68 234.753 1241.94 234.126 1241.94 232.619C1241.94 229.731 1235.16 232.493 1234.54 225.086ZM1210.3 231.866C1199.88 231.866 1193.1 224.835 1193.1 215.167C1193.1 206.88 1199.88 201.23 1209.93 201.23C1219.72 201.23 1226 207.006 1226.12 213.535L1226.5 217.301C1226.63 225.588 1220.1 231.866 1210.3 231.866ZM1284.66 173.734C1267.46 173.734 1267.46 172.478 1258.67 172.478C1242.35 172.478 1231.93 183.025 1231.93 197.338C1231.93 210.521 1243.35 221.319 1257.66 221.319C1258.67 221.319 1259.67 221.319 1260.68 221.193C1271.98 221.445 1279.26 227.597 1279.26 236.888C1279.26 245.928 1271.22 252.08 1259.92 252.08C1235.69 252.08 1240.09 231.866 1233.93 231.866C1231.55 231.866 1230.54 233.498 1230.54 235.381C1230.54 242.663 1238.96 255.47 1258.92 255.47C1275.37 255.47 1286.67 248.313 1286.67 236.009C1286.67 228.099 1280.51 221.57 1269.47 219.31C1279.26 215.543 1285.41 207.131 1285.41 196.334C1285.41 189.679 1281.77 182.272 1275.74 178.379C1279.51 177.752 1283.53 178.003 1286.54 176.496C1288.3 175.743 1287.67 173.734 1284.66 173.734ZM1259.17 217.929C1247.62 217.929 1239.33 207.257 1239.33 194.701C1239.33 184.28 1246.36 175.868 1257.16 175.868C1269.47 175.868 1278 186.289 1278 198.845C1278 209.391 1270.6 217.929 1259.17 217.929ZM1331.92 216.925C1329.16 223.956 1322.88 229.731 1312.21 229.731C1300.78 229.731 1291.87 221.947 1289.48 208.889L1328.41 197.213C1332.05 196.083 1333.8 194.45 1333.8 191.06C1333.8 182.523 1324.51 172.478 1310.58 172.478C1293.75 172.478 1281.32 185.913 1281.32 203.239C1281.32 223.077 1294.26 235.256 1309.82 235.256C1325.14 235.256 1333.3 225.588 1335.31 217.678C1335.69 215.418 1332.8 215.167 1331.92 216.925ZM1309.45 175.868C1319.37 175.868 1326.65 185.159 1326.65 191.186C1326.65 192.818 1326.02 194.074 1323.89 194.701L1288.98 205.374C1288.86 203.992 1288.73 202.486 1288.73 200.979C1288.73 187.294 1297.02 175.868 1309.45 175.868ZM1352.27 235.256C1367.21 235.256 1376.75 227.722 1376.75 218.557C1376.75 193.446 1336.58 207.131 1336.58 187.921C1336.58 180.89 1343.61 175.743 1351.89 175.743C1369.6 175.743 1366.71 190.433 1372.23 190.433C1374.12 190.433 1375.37 189.177 1375.37 187.168C1375.37 181.016 1366.96 172.478 1351.64 172.478C1338.33 172.478 1329.17 179.886 1329.17 189.051C1329.17 213.283 1369.35 199.849 1369.35 219.687C1369.35 227.471 1361.81 231.991 1352.27 231.991C1333.19 231.991 1337.33 217.552 1331.05 217.552C1328.79 217.552 1327.54 218.808 1327.54 220.942C1327.54 225.965 1335.19 235.256 1352.27 235.256Z" fill="#FFE944"/>
<path d="M995.55 276.05L996.53 274.91V281.39L996.01 280.7H1001.6V282.5H996.01L996.53 281.81V288.34L995.55 287.2H1002.71V289H994.35V274.25H1002.71V276.05H995.55ZM1008.01 283.28L1007.99 284.29L1003.76 278.38H1006.13L1009.48 283.13L1008.18 283.11L1011.45 278.38H1013.78L1009.7 283.98L1009.72 283.19L1013.84 289H1011.47L1008.1 284.29L1009.55 284.08L1005.93 289H1003.61L1008.01 283.28ZM1015.36 293.37V278.38H1017.53V293.37H1015.36ZM1020.95 289.21C1020.12 289.21 1019.35 289.003 1018.65 288.59C1017.94 288.17 1017.37 287.597 1016.93 286.87C1016.49 286.143 1016.28 285.32 1016.28 284.4C1016.28 284.373 1016.28 284.353 1016.28 284.34C1016.28 284.32 1016.28 284.3 1016.28 284.28L1017.54 284.25C1017.54 284.263 1017.54 284.28 1017.54 284.3C1017.54 284.313 1017.54 284.33 1017.54 284.35C1017.54 284.897 1017.68 285.39 1017.96 285.83C1018.24 286.263 1018.61 286.607 1019.07 286.86C1019.52 287.113 1020.01 287.24 1020.53 287.24C1021.38 287.24 1022.1 286.95 1022.68 286.37C1023.26 285.783 1023.56 284.883 1023.56 283.67C1023.56 282.45 1023.27 281.553 1022.69 280.98C1022.11 280.4 1021.39 280.11 1020.53 280.11C1020.01 280.11 1019.52 280.237 1019.07 280.49C1018.61 280.737 1018.24 281.077 1017.96 281.51C1017.68 281.937 1017.54 282.427 1017.54 282.98L1016.28 282.93C1016.28 282.003 1016.49 281.187 1016.93 280.48C1017.37 279.767 1017.94 279.21 1018.65 278.81C1019.35 278.41 1020.12 278.21 1020.95 278.21C1021.81 278.21 1022.6 278.423 1023.34 278.85C1024.07 279.27 1024.66 279.887 1025.11 280.7C1025.56 281.513 1025.79 282.503 1025.79 283.67C1025.79 284.863 1025.57 285.873 1025.13 286.7C1024.69 287.527 1024.1 288.153 1023.37 288.58C1022.63 289 1021.83 289.21 1020.95 289.21ZM1030.08 273.37V289H1027.94V273.37H1030.08ZM1037.72 289.2C1036.62 289.2 1035.66 288.963 1034.82 288.49C1033.98 288.017 1033.33 287.367 1032.86 286.54C1032.39 285.707 1032.16 284.753 1032.16 283.68C1032.16 282.613 1032.39 281.67 1032.86 280.85C1033.33 280.023 1033.98 279.38 1034.82 278.92C1035.66 278.453 1036.62 278.22 1037.72 278.22C1038.81 278.22 1039.77 278.453 1040.61 278.92C1041.45 279.38 1042.1 280.023 1042.57 280.85C1043.04 281.67 1043.28 282.613 1043.28 283.68C1043.28 284.753 1043.04 285.707 1042.57 286.54C1042.1 287.367 1041.45 288.017 1040.61 288.49C1039.77 288.963 1038.81 289.2 1037.72 289.2ZM1037.72 287.34C1038.38 287.34 1038.97 287.19 1039.48 286.89C1039.98 286.59 1040.38 286.167 1040.67 285.62C1040.95 285.067 1041.1 284.42 1041.1 283.68C1041.1 282.947 1040.95 282.31 1040.67 281.77C1040.38 281.23 1039.98 280.813 1039.48 280.52C1038.97 280.227 1038.38 280.08 1037.72 280.08C1037.06 280.08 1036.47 280.227 1035.96 280.52C1035.45 280.813 1035.05 281.23 1034.77 281.77C1034.48 282.31 1034.34 282.947 1034.34 283.68C1034.34 284.42 1034.48 285.067 1034.77 285.62C1035.05 286.167 1035.45 286.59 1035.96 286.89C1036.47 287.19 1037.06 287.34 1037.72 287.34ZM1045.29 289V278.38H1047.46V281.77L1046.88 281.51C1046.93 281.077 1047.04 280.663 1047.21 280.27C1047.38 279.877 1047.61 279.527 1047.9 279.22C1048.19 278.907 1048.55 278.66 1048.98 278.48C1049.41 278.3 1049.9 278.21 1050.46 278.21C1050.89 278.21 1051.23 278.243 1051.49 278.31C1051.76 278.377 1051.92 278.43 1051.98 278.47L1051.52 280.51C1051.45 280.463 1051.32 280.403 1051.11 280.33C1050.91 280.257 1050.63 280.22 1050.27 280.22C1049.72 280.22 1049.27 280.317 1048.91 280.51C1048.55 280.703 1048.26 280.96 1048.05 281.28C1047.84 281.6 1047.68 281.95 1047.59 282.33C1047.5 282.703 1047.46 283.08 1047.46 283.46V289H1045.29ZM1053.9 284.45V282.76H1061.72L1061.42 283.26C1061.42 283.22 1061.42 283.18 1061.42 283.14C1061.42 283.093 1061.42 283.053 1061.42 283.02C1061.42 282.48 1061.31 281.983 1061.07 281.53C1060.84 281.07 1060.49 280.703 1060.02 280.43C1059.56 280.15 1058.99 280.01 1058.29 280.01C1057.6 280.01 1056.99 280.16 1056.46 280.46C1055.94 280.753 1055.54 281.173 1055.24 281.72C1054.96 282.26 1054.81 282.91 1054.81 283.67C1054.81 284.443 1054.95 285.11 1055.23 285.67C1055.51 286.223 1055.92 286.65 1056.44 286.95C1056.97 287.25 1057.6 287.4 1058.33 287.4C1058.85 287.4 1059.29 287.35 1059.66 287.25C1060.04 287.143 1060.35 287.003 1060.59 286.83C1060.84 286.657 1061.03 286.47 1061.15 286.27C1061.28 286.063 1061.35 285.86 1061.37 285.66H1063.53C1063.49 286.093 1063.35 286.523 1063.1 286.95C1062.86 287.37 1062.52 287.753 1062.07 288.1C1061.63 288.44 1061.09 288.713 1060.45 288.92C1059.82 289.12 1059.09 289.22 1058.26 289.22C1057.16 289.22 1056.19 288.987 1055.35 288.52C1054.52 288.053 1053.87 287.407 1053.4 286.58C1052.94 285.747 1052.7 284.793 1052.7 283.72C1052.7 282.627 1052.94 281.667 1053.41 280.84C1053.89 280.013 1054.54 279.37 1055.38 278.91C1056.22 278.443 1057.19 278.21 1058.27 278.21C1059.38 278.21 1060.34 278.443 1061.14 278.91C1061.96 279.377 1062.58 280.02 1063.02 280.84C1063.46 281.66 1063.68 282.603 1063.68 283.67C1063.68 283.797 1063.68 283.943 1063.67 284.11C1063.67 284.277 1063.66 284.39 1063.64 284.45H1053.9ZM1075.45 289.2C1074.36 289.2 1073.39 288.963 1072.55 288.49C1071.72 288.017 1071.06 287.367 1070.59 286.54C1070.12 285.707 1069.89 284.753 1069.89 283.68C1069.89 282.613 1070.12 281.67 1070.59 280.85C1071.06 280.023 1071.72 279.38 1072.55 278.92C1073.39 278.453 1074.36 278.22 1075.45 278.22C1076.54 278.22 1077.51 278.453 1078.34 278.92C1079.18 279.38 1079.83 280.023 1080.3 280.85C1080.77 281.67 1081.01 282.613 1081.01 283.68C1081.01 284.753 1080.77 285.707 1080.3 286.54C1079.83 287.367 1079.18 288.017 1078.34 288.49C1077.51 288.963 1076.54 289.2 1075.45 289.2ZM1075.45 287.34C1076.12 287.34 1076.7 287.19 1077.21 286.89C1077.72 286.59 1078.11 286.167 1078.4 285.62C1078.69 285.067 1078.83 284.42 1078.83 283.68C1078.83 282.947 1078.69 282.31 1078.4 281.77C1078.11 281.23 1077.72 280.813 1077.21 280.52C1076.7 280.227 1076.12 280.08 1075.45 280.08C1074.79 280.08 1074.2 280.227 1073.69 280.52C1073.18 280.813 1072.79 281.23 1072.5 281.77C1072.21 282.31 1072.07 282.947 1072.07 283.68C1072.07 284.42 1072.21 285.067 1072.5 285.62C1072.79 286.167 1073.18 286.59 1073.69 286.89C1074.2 287.19 1074.79 287.34 1075.45 287.34ZM1086.9 289.19C1086.14 289.19 1085.52 289.063 1085.02 288.81C1084.52 288.55 1084.12 288.213 1083.83 287.8C1083.53 287.38 1083.33 286.923 1083.21 286.43C1083.09 285.93 1083.03 285.443 1083.03 284.97C1083.03 284.723 1083.03 284.467 1083.03 284.2C1083.03 283.927 1083.03 283.653 1083.03 283.38V278.38H1085.21V283.07C1085.21 283.31 1085.21 283.547 1085.21 283.78C1085.21 284.007 1085.21 284.22 1085.21 284.42C1085.21 284.933 1085.27 285.407 1085.41 285.84C1085.54 286.267 1085.77 286.613 1086.11 286.88C1086.45 287.14 1086.92 287.27 1087.53 287.27C1088.09 287.27 1088.59 287.103 1089.01 286.77C1089.43 286.43 1089.75 286.003 1089.99 285.49C1090.22 284.97 1090.34 284.45 1090.34 283.93L1091.29 284.44C1091.29 285.053 1091.18 285.643 1090.98 286.21C1090.78 286.777 1090.49 287.287 1090.11 287.74C1089.73 288.187 1089.26 288.54 1088.72 288.8C1088.18 289.06 1087.57 289.19 1086.9 289.19ZM1090.34 289V278.38H1092.51V289H1090.34ZM1094.85 289V278.38H1097.02V281.77L1096.44 281.51C1096.49 281.077 1096.6 280.663 1096.77 280.27C1096.95 279.877 1097.18 279.527 1097.46 279.22C1097.76 278.907 1098.12 278.66 1098.54 278.48C1098.97 278.3 1099.46 278.21 1100.02 278.21C1100.45 278.21 1100.79 278.243 1101.05 278.31C1101.32 278.377 1101.48 278.43 1101.54 278.47L1101.08 280.51C1101.02 280.463 1100.88 280.403 1100.67 280.33C1100.47 280.257 1100.19 280.22 1099.83 280.22C1099.29 280.22 1098.83 280.317 1098.47 280.51C1098.11 280.703 1097.83 280.96 1097.61 281.28C1097.4 281.6 1097.25 281.95 1097.15 282.33C1097.07 282.703 1097.02 283.08 1097.02 283.46V289H1094.85ZM1111.69 289.21C1111.06 289.21 1110.46 289.14 1109.9 289C1109.34 288.86 1108.85 288.657 1108.42 288.39C1108 288.117 1107.67 287.78 1107.43 287.38C1107.2 286.98 1107.08 286.517 1107.08 285.99C1107.08 285.943 1107.08 285.897 1107.08 285.85C1107.08 285.797 1107.08 285.753 1107.08 285.72H1109.24C1109.24 285.753 1109.24 285.783 1109.24 285.81C1109.24 285.837 1109.24 285.873 1109.24 285.92C1109.24 286.407 1109.46 286.777 1109.91 287.03C1110.36 287.277 1110.98 287.4 1111.75 287.4C1112.2 287.4 1112.62 287.353 1112.99 287.26C1113.37 287.167 1113.67 287.023 1113.89 286.83C1114.12 286.637 1114.23 286.39 1114.23 286.09C1114.23 285.603 1113.99 285.257 1113.51 285.05C1113.04 284.843 1112.32 284.66 1111.35 284.5C1110.82 284.407 1110.31 284.287 1109.82 284.14C1109.33 283.993 1108.89 283.8 1108.5 283.56C1108.11 283.313 1107.8 283.01 1107.57 282.65C1107.34 282.283 1107.23 281.843 1107.23 281.33C1107.23 280.663 1107.43 280.097 1107.83 279.63C1108.23 279.163 1108.77 278.81 1109.45 278.57C1110.13 278.33 1110.88 278.21 1111.7 278.21C1112.49 278.21 1113.23 278.34 1113.9 278.6C1114.58 278.853 1115.13 279.223 1115.54 279.71C1115.95 280.19 1116.16 280.78 1116.16 281.48C1116.16 281.507 1116.16 281.537 1116.16 281.57C1116.16 281.603 1116.16 281.633 1116.16 281.66H1114.01C1114.01 281.633 1114.01 281.61 1114.01 281.59C1114.01 281.57 1114.01 281.547 1114.01 281.52C1114.01 281.173 1113.9 280.89 1113.68 280.67C1113.46 280.45 1113.17 280.287 1112.82 280.18C1112.47 280.067 1112.1 280.01 1111.71 280.01C1111.35 280.01 1110.99 280.05 1110.62 280.13C1110.26 280.203 1109.96 280.333 1109.72 280.52C1109.48 280.7 1109.36 280.947 1109.36 281.26C1109.36 281.58 1109.48 281.837 1109.71 282.03C1109.94 282.217 1110.27 282.373 1110.7 282.5C1111.13 282.62 1111.62 282.73 1112.19 282.83C1112.71 282.923 1113.22 283.043 1113.71 283.19C1114.2 283.33 1114.65 283.517 1115.04 283.75C1115.44 283.983 1115.76 284.283 1115.99 284.65C1116.23 285.017 1116.35 285.467 1116.35 286C1116.35 286.553 1116.22 287.03 1115.97 287.43C1115.72 287.83 1115.37 288.163 1114.93 288.43C1114.5 288.69 1114 288.883 1113.44 289.01C1112.89 289.143 1112.3 289.21 1111.69 289.21ZM1123.47 289.2C1122.38 289.2 1121.41 288.963 1120.57 288.49C1119.74 288.017 1119.08 287.367 1118.61 286.54C1118.14 285.707 1117.91 284.753 1117.91 283.68C1117.91 282.613 1118.14 281.67 1118.61 280.85C1119.08 280.023 1119.74 279.38 1120.57 278.92C1121.41 278.453 1122.38 278.22 1123.47 278.22C1124.56 278.22 1125.53 278.453 1126.36 278.92C1127.2 279.38 1127.85 280.023 1128.32 280.85C1128.79 281.67 1129.03 282.613 1129.03 283.68C1129.03 284.753 1128.79 285.707 1128.32 286.54C1127.85 287.367 1127.2 288.017 1126.36 288.49C1125.53 288.963 1124.56 289.2 1123.47 289.2ZM1123.47 287.34C1124.14 287.34 1124.72 287.19 1125.23 286.89C1125.74 286.59 1126.13 286.167 1126.42 285.62C1126.71 285.067 1126.85 284.42 1126.85 283.68C1126.85 282.947 1126.71 282.31 1126.42 281.77C1126.13 281.23 1125.74 280.813 1125.23 280.52C1124.72 280.227 1124.14 280.08 1123.47 280.08C1122.81 280.08 1122.22 280.227 1121.71 280.52C1121.2 280.813 1120.81 281.23 1120.52 281.77C1120.23 282.31 1120.09 282.947 1120.09 283.68C1120.09 284.42 1120.23 285.067 1120.52 285.62C1120.81 286.167 1121.2 286.59 1121.71 286.89C1122.22 287.19 1122.81 287.34 1123.47 287.34ZM1137.62 289V284.5C1137.62 284.093 1137.62 283.743 1137.62 283.45C1137.62 283.15 1137.62 282.897 1137.62 282.69C1137.62 282.43 1137.6 282.153 1137.56 281.86C1137.52 281.567 1137.44 281.293 1137.32 281.04C1137.2 280.78 1137.01 280.57 1136.75 280.41C1136.49 280.25 1136.13 280.17 1135.68 280.17C1135.22 280.17 1134.84 280.26 1134.53 280.44C1134.21 280.62 1133.96 280.86 1133.77 281.16C1133.57 281.453 1133.43 281.783 1133.35 282.15C1133.26 282.51 1133.22 282.873 1133.22 283.24L1132.3 282.74C1132.3 281.907 1132.46 281.15 1132.79 280.47C1133.12 279.783 1133.59 279.237 1134.19 278.83C1134.79 278.417 1135.51 278.21 1136.33 278.21C1137.16 278.21 1137.83 278.383 1138.33 278.73C1138.83 279.07 1139.2 279.537 1139.43 280.13C1139.65 280.717 1139.77 281.383 1139.77 282.13C1139.77 282.403 1139.77 282.76 1139.77 283.2C1139.77 283.64 1139.77 284.15 1139.77 284.73V289H1137.62ZM1131.05 289V278.38H1133.22V289H1131.05ZM1144.16 289V284.51C1144.16 284.07 1144.16 283.703 1144.16 283.41C1144.16 283.11 1144.16 282.86 1144.16 282.66C1144.16 282.387 1144.14 282.107 1144.11 281.82C1144.07 281.527 1143.99 281.257 1143.87 281.01C1143.74 280.763 1143.54 280.563 1143.28 280.41C1143.02 280.25 1142.65 280.17 1142.19 280.17C1141.73 280.17 1141.34 280.26 1141.03 280.44C1140.72 280.613 1140.47 280.847 1140.29 281.14C1140.1 281.427 1139.97 281.743 1139.89 282.09C1139.81 282.437 1139.77 282.78 1139.77 283.12L1138.85 282.64C1138.85 281.84 1139.01 281.103 1139.33 280.43C1139.65 279.757 1140.11 279.22 1140.71 278.82C1141.31 278.413 1142.02 278.21 1142.84 278.21C1143.64 278.21 1144.29 278.37 1144.81 278.69C1145.32 279.01 1145.7 279.453 1145.95 280.02C1146.19 280.587 1146.32 281.243 1146.32 281.99C1146.32 282.277 1146.32 282.637 1146.32 283.07C1146.32 283.503 1146.32 284.007 1146.32 284.58V289H1144.16ZM1149.44 284.45V282.76H1157.26L1156.96 283.26C1156.96 283.22 1156.96 283.18 1156.96 283.14C1156.96 283.093 1156.96 283.053 1156.96 283.02C1156.96 282.48 1156.85 281.983 1156.61 281.53C1156.38 281.07 1156.03 280.703 1155.56 280.43C1155.1 280.15 1154.53 280.01 1153.83 280.01C1153.14 280.01 1152.53 280.16 1152 280.46C1151.48 280.753 1151.08 281.173 1150.78 281.72C1150.5 282.26 1150.35 282.91 1150.35 283.67C1150.35 284.443 1150.49 285.11 1150.77 285.67C1151.05 286.223 1151.46 286.65 1151.98 286.95C1152.51 287.25 1153.14 287.4 1153.87 287.4C1154.39 287.4 1154.83 287.35 1155.2 287.25C1155.58 287.143 1155.89 287.003 1156.13 286.83C1156.38 286.657 1156.57 286.47 1156.69 286.27C1156.82 286.063 1156.89 285.86 1156.91 285.66H1159.07C1159.03 286.093 1158.89 286.523 1158.64 286.95C1158.4 287.37 1158.06 287.753 1157.61 288.1C1157.17 288.44 1156.63 288.713 1155.99 288.92C1155.36 289.12 1154.63 289.22 1153.8 289.22C1152.7 289.22 1151.73 288.987 1150.89 288.52C1150.06 288.053 1149.41 287.407 1148.94 286.58C1148.48 285.747 1148.24 284.793 1148.24 283.72C1148.24 282.627 1148.48 281.667 1148.95 280.84C1149.43 280.013 1150.08 279.37 1150.92 278.91C1151.76 278.443 1152.73 278.21 1153.81 278.21C1154.92 278.21 1155.88 278.443 1156.68 278.91C1157.5 279.377 1158.12 280.02 1158.56 280.84C1159 281.66 1159.22 282.603 1159.22 283.67C1159.22 283.797 1159.22 283.943 1159.21 284.11C1159.21 284.277 1159.2 284.39 1159.18 284.45H1149.44ZM1170.99 289.2C1169.9 289.2 1168.93 288.963 1168.09 288.49C1167.26 288.017 1166.61 287.367 1166.13 286.54C1165.67 285.707 1165.43 284.753 1165.43 283.68C1165.43 282.613 1165.67 281.67 1166.13 280.85C1166.61 280.023 1167.26 279.38 1168.09 278.92C1168.93 278.453 1169.9 278.22 1170.99 278.22C1172.09 278.22 1173.05 278.453 1173.88 278.92C1174.72 279.38 1175.38 280.023 1175.84 280.85C1176.32 281.67 1176.55 282.613 1176.55 283.68C1176.55 284.753 1176.32 285.707 1175.84 286.54C1175.38 287.367 1174.72 288.017 1173.88 288.49C1173.05 288.963 1172.09 289.2 1170.99 289.2ZM1170.99 287.34C1171.66 287.34 1172.25 287.19 1172.75 286.89C1173.26 286.59 1173.66 286.167 1173.94 285.62C1174.23 285.067 1174.37 284.42 1174.37 283.68C1174.37 282.947 1174.23 282.31 1173.94 281.77C1173.66 281.23 1173.26 280.813 1172.75 280.52C1172.25 280.227 1171.66 280.08 1170.99 280.08C1170.33 280.08 1169.75 280.227 1169.23 280.52C1168.73 280.813 1168.33 281.23 1168.04 281.77C1167.76 282.31 1167.61 282.947 1167.61 283.68C1167.61 284.42 1167.76 285.067 1168.04 285.62C1168.33 286.167 1168.73 286.59 1169.23 286.89C1169.75 287.19 1170.33 287.34 1170.99 287.34ZM1179.76 289V280.18H1177.47V278.38H1179.76V277.22C1179.76 276.673 1179.83 276.183 1179.96 275.75C1180.1 275.317 1180.29 274.943 1180.54 274.63C1180.79 274.31 1181.08 274.047 1181.41 273.84C1181.75 273.633 1182.12 273.48 1182.52 273.38C1182.93 273.273 1183.35 273.22 1183.79 273.22C1184.15 273.22 1184.43 273.243 1184.63 273.29C1184.84 273.33 1184.97 273.367 1185.04 273.4V275.21C1184.96 275.183 1184.82 275.153 1184.63 275.12C1184.44 275.087 1184.23 275.07 1184.01 275.07C1183.58 275.07 1183.23 275.133 1182.96 275.26C1182.69 275.387 1182.47 275.563 1182.32 275.79C1182.17 276.01 1182.06 276.267 1182 276.56C1181.95 276.847 1181.92 277.153 1181.92 277.48V278.38H1184.94V280.18H1181.92V289H1179.76ZM1195.51 289.18C1195.16 289.18 1194.8 289.143 1194.45 289.07C1194.1 288.997 1193.78 288.863 1193.49 288.67C1193.2 288.47 1192.97 288.187 1192.8 287.82C1192.63 287.453 1192.54 286.973 1192.54 286.38C1192.54 286.24 1192.54 286.093 1192.54 285.94C1192.54 285.787 1192.54 285.63 1192.54 285.47V280.18H1189.99V278.38H1191.33C1191.62 278.38 1191.84 278.37 1192 278.35C1192.17 278.323 1192.29 278.267 1192.36 278.18C1192.44 278.087 1192.49 277.94 1192.51 277.74C1192.53 277.54 1192.54 277.267 1192.54 276.92V274.87H1194.71V278.38H1197.96V280.18H1194.71V284.89C1194.71 285.023 1194.71 285.157 1194.71 285.29C1194.71 285.423 1194.71 285.547 1194.71 285.66C1194.71 286.193 1194.77 286.613 1194.9 286.92C1195.03 287.227 1195.33 287.38 1195.8 287.38C1196 287.38 1196.19 287.363 1196.37 287.33C1196.55 287.297 1196.69 287.26 1196.78 287.22V288.99C1196.66 289.037 1196.49 289.08 1196.27 289.12C1196.05 289.16 1195.8 289.18 1195.51 289.18ZM1207.2 289V285.11C1207.2 284.937 1207.2 284.727 1207.2 284.48C1207.2 284.233 1207.2 283.983 1207.2 283.73C1207.2 283.47 1207.2 283.253 1207.2 283.08C1207.2 282.127 1207.01 281.403 1206.61 280.91C1206.23 280.417 1205.59 280.17 1204.7 280.17C1204.11 280.17 1203.6 280.287 1203.16 280.52C1202.73 280.753 1202.39 281.073 1202.15 281.48C1201.92 281.887 1201.8 282.35 1201.8 282.87L1200.78 282.45C1200.78 281.643 1200.98 280.923 1201.36 280.29C1201.76 279.65 1202.29 279.143 1202.97 278.77C1203.66 278.397 1204.44 278.21 1205.32 278.21C1206.6 278.21 1207.6 278.593 1208.3 279.36C1209.02 280.12 1209.37 281.18 1209.37 282.54C1209.37 282.887 1209.37 283.297 1209.37 283.77C1209.37 284.237 1209.37 284.747 1209.37 285.3V289H1207.2ZM1199.63 289V273.37H1201.8V289H1199.63ZM1212.48 284.45V282.76H1220.3L1220 283.26C1220 283.22 1220 283.18 1220 283.14C1220 283.093 1220 283.053 1220 283.02C1220 282.48 1219.89 281.983 1219.65 281.53C1219.42 281.07 1219.07 280.703 1218.6 280.43C1218.14 280.15 1217.57 280.01 1216.87 280.01C1216.18 280.01 1215.57 280.16 1215.04 280.46C1214.52 280.753 1214.12 281.173 1213.82 281.72C1213.54 282.26 1213.39 282.91 1213.39 283.67C1213.39 284.443 1213.53 285.11 1213.81 285.67C1214.09 286.223 1214.5 286.65 1215.02 286.95C1215.55 287.25 1216.18 287.4 1216.91 287.4C1217.43 287.4 1217.87 287.35 1218.24 287.25C1218.62 287.143 1218.93 287.003 1219.17 286.83C1219.42 286.657 1219.61 286.47 1219.73 286.27C1219.86 286.063 1219.93 285.86 1219.95 285.66H1222.11C1222.07 286.093 1221.93 286.523 1221.68 286.95C1221.44 287.37 1221.1 287.753 1220.65 288.1C1220.21 288.44 1219.67 288.713 1219.03 288.92C1218.4 289.12 1217.67 289.22 1216.84 289.22C1215.74 289.22 1214.77 288.987 1213.93 288.52C1213.1 288.053 1212.45 287.407 1211.98 286.58C1211.52 285.747 1211.28 284.793 1211.28 283.72C1211.28 282.627 1211.52 281.667 1211.99 280.84C1212.47 280.013 1213.12 279.37 1213.96 278.91C1214.8 278.443 1215.77 278.21 1216.85 278.21C1217.96 278.21 1218.92 278.443 1219.72 278.91C1220.54 279.377 1221.16 280.02 1221.6 280.84C1222.04 281.66 1222.26 282.603 1222.26 283.67C1222.26 283.797 1222.26 283.943 1222.25 284.11C1222.25 284.277 1222.24 284.39 1222.22 284.45H1212.48ZM1234.02 274.25C1234.98 274.25 1235.77 274.383 1236.41 274.65C1237.06 274.91 1237.55 275.303 1237.88 275.83C1238.22 276.35 1238.38 277 1238.38 277.78C1238.38 278.527 1238.23 279.157 1237.92 279.67C1237.62 280.177 1237.24 280.563 1236.76 280.83C1236.3 281.097 1235.82 281.247 1235.32 281.28C1235.86 281.293 1236.38 281.42 1236.9 281.66C1237.43 281.893 1237.86 282.273 1238.2 282.8C1238.54 283.32 1238.71 284.017 1238.71 284.89C1238.71 285.73 1238.54 286.46 1238.2 287.08C1237.87 287.693 1237.35 288.167 1236.65 288.5C1235.95 288.833 1235.05 289 1233.95 289H1228.81V274.25H1234.02ZM1230.9 281.13L1230.17 280.45H1233.17C1234.15 280.45 1234.9 280.25 1235.42 279.85C1235.95 279.45 1236.21 278.877 1236.21 278.13C1236.21 277.623 1236.1 277.22 1235.88 276.92C1235.66 276.613 1235.35 276.393 1234.93 276.26C1234.53 276.12 1234.04 276.05 1233.48 276.05H1229.92L1230.9 274.91V281.13ZM1233.53 287.2C1234.47 287.2 1235.19 286.993 1235.71 286.58C1236.24 286.16 1236.5 285.557 1236.5 284.77C1236.5 284.297 1236.42 283.9 1236.24 283.58C1236.08 283.253 1235.85 282.993 1235.55 282.8C1235.26 282.607 1234.92 282.467 1234.53 282.38C1234.15 282.287 1233.73 282.24 1233.29 282.24H1230.17L1230.9 281.56V288.34L1229.92 287.2H1233.53ZM1241.62 284.45V282.76H1249.44L1249.14 283.26C1249.14 283.22 1249.14 283.18 1249.14 283.14C1249.14 283.093 1249.14 283.053 1249.14 283.02C1249.14 282.48 1249.02 281.983 1248.79 281.53C1248.55 281.07 1248.2 280.703 1247.74 280.43C1247.28 280.15 1246.7 280.01 1246.01 280.01C1245.31 280.01 1244.7 280.16 1244.18 280.46C1243.66 280.753 1243.25 281.173 1242.96 281.72C1242.67 282.26 1242.53 282.91 1242.53 283.67C1242.53 284.443 1242.67 285.11 1242.95 285.67C1243.23 286.223 1243.63 286.65 1244.16 286.95C1244.68 287.25 1245.31 287.4 1246.05 287.4C1246.56 287.4 1247 287.35 1247.38 287.25C1247.76 287.143 1248.07 287.003 1248.31 286.83C1248.55 286.657 1248.74 286.47 1248.87 286.27C1248.99 286.063 1249.07 285.86 1249.09 285.66H1251.25C1251.21 286.093 1251.06 286.523 1250.82 286.95C1250.58 287.37 1250.23 287.753 1249.79 288.1C1249.35 288.44 1248.81 288.713 1248.17 288.92C1247.53 289.12 1246.8 289.22 1245.98 289.22C1244.87 289.22 1243.9 288.987 1243.07 288.52C1242.23 288.053 1241.58 287.407 1241.12 286.58C1240.65 285.747 1240.42 284.793 1240.42 283.72C1240.42 282.627 1240.65 281.667 1241.13 280.84C1241.6 280.013 1242.26 279.37 1243.1 278.91C1243.94 278.443 1244.9 278.21 1245.99 278.21C1247.09 278.21 1248.05 278.443 1248.86 278.91C1249.67 279.377 1250.3 280.02 1250.74 280.84C1251.18 281.66 1251.4 282.603 1251.4 283.67C1251.4 283.797 1251.39 283.943 1251.39 284.11C1251.38 284.277 1251.37 284.39 1251.36 284.45H1241.62ZM1257.59 289.21C1256.96 289.21 1256.36 289.14 1255.8 289C1255.24 288.86 1254.75 288.657 1254.32 288.39C1253.9 288.117 1253.57 287.78 1253.33 287.38C1253.1 286.98 1252.98 286.517 1252.98 285.99C1252.98 285.943 1252.98 285.897 1252.98 285.85C1252.98 285.797 1252.98 285.753 1252.98 285.72H1255.14C1255.14 285.753 1255.14 285.783 1255.14 285.81C1255.14 285.837 1255.14 285.873 1255.14 285.92C1255.14 286.407 1255.37 286.777 1255.81 287.03C1256.27 287.277 1256.88 287.4 1257.65 287.4C1258.11 287.4 1258.52 287.353 1258.89 287.26C1259.27 287.167 1259.57 287.023 1259.79 286.83C1260.02 286.637 1260.13 286.39 1260.13 286.09C1260.13 285.603 1259.89 285.257 1259.41 285.05C1258.94 284.843 1258.22 284.66 1257.25 284.5C1256.73 284.407 1256.22 284.287 1255.72 284.14C1255.24 283.993 1254.8 283.8 1254.4 283.56C1254.02 283.313 1253.71 283.01 1253.47 282.65C1253.25 282.283 1253.13 281.843 1253.13 281.33C1253.13 280.663 1253.33 280.097 1253.73 279.63C1254.13 279.163 1254.67 278.81 1255.35 278.57C1256.03 278.33 1256.78 278.21 1257.6 278.21C1258.4 278.21 1259.13 278.34 1259.8 278.6C1260.48 278.853 1261.03 279.223 1261.44 279.71C1261.86 280.19 1262.06 280.78 1262.06 281.48C1262.06 281.507 1262.06 281.537 1262.06 281.57C1262.06 281.603 1262.06 281.633 1262.06 281.66H1259.91C1259.91 281.633 1259.91 281.61 1259.91 281.59C1259.91 281.57 1259.91 281.547 1259.91 281.52C1259.91 281.173 1259.8 280.89 1259.58 280.67C1259.36 280.45 1259.08 280.287 1258.72 280.18C1258.38 280.067 1258.01 280.01 1257.61 280.01C1257.25 280.01 1256.89 280.05 1256.52 280.13C1256.16 280.203 1255.86 280.333 1255.62 280.52C1255.38 280.7 1255.26 280.947 1255.26 281.26C1255.26 281.58 1255.38 281.837 1255.61 282.03C1255.85 282.217 1256.18 282.373 1256.6 282.5C1257.03 282.62 1257.53 282.73 1258.09 282.83C1258.61 282.923 1259.12 283.043 1259.61 283.19C1260.11 283.33 1260.55 283.517 1260.94 283.75C1261.34 283.983 1261.66 284.283 1261.89 284.65C1262.13 285.017 1262.25 285.467 1262.25 286C1262.25 286.553 1262.13 287.03 1261.87 287.43C1261.62 287.83 1261.27 288.163 1260.83 288.43C1260.4 288.69 1259.9 288.883 1259.34 289.01C1258.79 289.143 1258.21 289.21 1257.59 289.21ZM1268.61 289.18C1268.26 289.18 1267.9 289.143 1267.55 289.07C1267.2 288.997 1266.88 288.863 1266.59 288.67C1266.3 288.47 1266.07 288.187 1265.9 287.82C1265.73 287.453 1265.64 286.973 1265.64 286.38C1265.64 286.24 1265.64 286.093 1265.64 285.94C1265.64 285.787 1265.64 285.63 1265.64 285.47V280.18H1263.09V278.38H1264.43C1264.72 278.38 1264.94 278.37 1265.1 278.35C1265.27 278.323 1265.39 278.267 1265.46 278.18C1265.54 278.087 1265.59 277.94 1265.61 277.74C1265.63 277.54 1265.64 277.267 1265.64 276.92V274.87H1267.81V278.38H1271.06V280.18H1267.81V284.89C1267.81 285.023 1267.81 285.157 1267.81 285.29C1267.81 285.423 1267.81 285.547 1267.81 285.66C1267.81 286.193 1267.87 286.613 1268 286.92C1268.13 287.227 1268.43 287.38 1268.9 287.38C1269.1 287.38 1269.29 287.363 1269.47 287.33C1269.65 287.297 1269.79 287.26 1269.88 287.22V288.99C1269.76 289.037 1269.59 289.08 1269.37 289.12C1269.15 289.16 1268.9 289.18 1268.61 289.18ZM1276.6 289.21C1275.97 289.21 1275.37 289.14 1274.81 289C1274.25 288.86 1273.76 288.657 1273.33 288.39C1272.91 288.117 1272.58 287.78 1272.34 287.38C1272.11 286.98 1271.99 286.517 1271.99 285.99C1271.99 285.943 1271.99 285.897 1271.99 285.85C1271.99 285.797 1271.99 285.753 1271.99 285.72H1274.15C1274.15 285.753 1274.15 285.783 1274.15 285.81C1274.15 285.837 1274.15 285.873 1274.15 285.92C1274.15 286.407 1274.37 286.777 1274.82 287.03C1275.27 287.277 1275.89 287.4 1276.66 287.4C1277.11 287.4 1277.53 287.353 1277.9 287.26C1278.28 287.167 1278.58 287.023 1278.8 286.83C1279.03 286.637 1279.14 286.39 1279.14 286.09C1279.14 285.603 1278.9 285.257 1278.42 285.05C1277.95 284.843 1277.23 284.66 1276.26 284.5C1275.73 284.407 1275.22 284.287 1274.73 284.14C1274.24 283.993 1273.8 283.8 1273.41 283.56C1273.02 283.313 1272.71 283.01 1272.48 282.65C1272.25 282.283 1272.14 281.843 1272.14 281.33C1272.14 280.663 1272.34 280.097 1272.74 279.63C1273.14 279.163 1273.68 278.81 1274.36 278.57C1275.04 278.33 1275.79 278.21 1276.61 278.21C1277.4 278.21 1278.14 278.34 1278.81 278.6C1279.49 278.853 1280.04 279.223 1280.45 279.71C1280.86 280.19 1281.07 280.78 1281.07 281.48C1281.07 281.507 1281.07 281.537 1281.07 281.57C1281.07 281.603 1281.07 281.633 1281.07 281.66H1278.92C1278.92 281.633 1278.92 281.61 1278.92 281.59C1278.92 281.57 1278.92 281.547 1278.92 281.52C1278.92 281.173 1278.81 280.89 1278.59 280.67C1278.37 280.45 1278.08 280.287 1277.73 280.18C1277.38 280.067 1277.01 280.01 1276.62 280.01C1276.26 280.01 1275.9 280.05 1275.53 280.13C1275.17 280.203 1274.87 280.333 1274.63 280.52C1274.39 280.7 1274.27 280.947 1274.27 281.26C1274.27 281.58 1274.39 281.837 1274.62 282.03C1274.85 282.217 1275.18 282.373 1275.61 282.5C1276.04 282.62 1276.53 282.73 1277.1 282.83C1277.62 282.923 1278.13 283.043 1278.62 283.19C1279.11 283.33 1279.56 283.517 1279.95 283.75C1280.35 283.983 1280.67 284.283 1280.9 284.65C1281.14 285.017 1281.26 285.467 1281.26 286C1281.26 286.553 1281.13 287.03 1280.88 287.43C1280.63 287.83 1280.28 288.163 1279.84 288.43C1279.41 288.69 1278.91 288.883 1278.35 289.01C1277.8 289.143 1277.21 289.21 1276.6 289.21ZM1284.02 284.45V282.76H1291.84L1291.54 283.26C1291.54 283.22 1291.54 283.18 1291.54 283.14C1291.54 283.093 1291.54 283.053 1291.54 283.02C1291.54 282.48 1291.42 281.983 1291.19 281.53C1290.96 281.07 1290.61 280.703 1290.14 280.43C1289.68 280.15 1289.1 280.01 1288.41 280.01C1287.72 280.01 1287.11 280.16 1286.58 280.46C1286.06 280.753 1285.65 281.173 1285.36 281.72C1285.07 282.26 1284.93 282.91 1284.93 283.67C1284.93 284.443 1285.07 285.11 1285.35 285.67C1285.63 286.223 1286.03 286.65 1286.56 286.95C1287.09 287.25 1287.72 287.4 1288.45 287.4C1288.96 287.4 1289.41 287.35 1289.78 287.25C1290.16 287.143 1290.47 287.003 1290.71 286.83C1290.96 286.657 1291.14 286.47 1291.27 286.27C1291.4 286.063 1291.47 285.86 1291.49 285.66H1293.65C1293.61 286.093 1293.47 286.523 1293.22 286.95C1292.98 287.37 1292.64 287.753 1292.19 288.1C1291.75 288.44 1291.21 288.713 1290.57 288.92C1289.94 289.12 1289.21 289.22 1288.38 289.22C1287.27 289.22 1286.3 288.987 1285.47 288.52C1284.64 288.053 1283.99 287.407 1283.52 286.58C1283.05 285.747 1282.82 284.793 1282.82 283.72C1282.82 282.627 1283.06 281.667 1283.53 280.84C1284 280.013 1284.66 279.37 1285.5 278.91C1286.34 278.443 1287.3 278.21 1288.39 278.21C1289.5 278.21 1290.45 278.443 1291.26 278.91C1292.07 279.377 1292.7 280.02 1293.14 280.84C1293.58 281.66 1293.8 282.603 1293.8 283.67C1293.8 283.797 1293.8 283.943 1293.79 284.11C1293.78 284.277 1293.77 284.39 1293.76 284.45H1284.02ZM1298.11 273.37V289H1295.97V273.37H1298.11ZM1302.9 273.37V289H1300.76V273.37H1302.9ZM1306.18 284.45V282.76H1314L1313.7 283.26C1313.7 283.22 1313.7 283.18 1313.7 283.14C1313.7 283.093 1313.7 283.053 1313.7 283.02C1313.7 282.48 1313.58 281.983 1313.35 281.53C1313.12 281.07 1312.77 280.703 1312.3 280.43C1311.84 280.15 1311.26 280.01 1310.57 280.01C1309.88 280.01 1309.27 280.16 1308.74 280.46C1308.22 280.753 1307.81 281.173 1307.52 281.72C1307.23 282.26 1307.09 282.91 1307.09 283.67C1307.09 284.443 1307.23 285.11 1307.51 285.67C1307.79 286.223 1308.19 286.65 1308.72 286.95C1309.25 287.25 1309.88 287.4 1310.61 287.4C1311.12 287.4 1311.57 287.35 1311.94 287.25C1312.32 287.143 1312.63 287.003 1312.87 286.83C1313.12 286.657 1313.3 286.47 1313.43 286.27C1313.56 286.063 1313.63 285.86 1313.65 285.66H1315.81C1315.77 286.093 1315.63 286.523 1315.38 286.95C1315.14 287.37 1314.8 287.753 1314.35 288.1C1313.91 288.44 1313.37 288.713 1312.73 288.92C1312.1 289.12 1311.37 289.22 1310.54 289.22C1309.43 289.22 1308.46 288.987 1307.63 288.52C1306.8 288.053 1306.15 287.407 1305.68 286.58C1305.21 285.747 1304.98 284.793 1304.98 283.72C1304.98 282.627 1305.22 281.667 1305.69 280.84C1306.16 280.013 1306.82 279.37 1307.66 278.91C1308.5 278.443 1309.46 278.21 1310.55 278.21C1311.66 278.21 1312.61 278.443 1313.42 278.91C1314.23 279.377 1314.86 280.02 1315.3 280.84C1315.74 281.66 1315.96 282.603 1315.96 283.67C1315.96 283.797 1315.96 283.943 1315.95 284.11C1315.94 284.277 1315.93 284.39 1315.92 284.45H1306.18ZM1317.98 289V278.38H1320.15V281.77L1319.57 281.51C1319.61 281.077 1319.72 280.663 1319.9 280.27C1320.07 279.877 1320.3 279.527 1320.59 279.22C1320.88 278.907 1321.24 278.66 1321.67 278.48C1322.09 278.3 1322.59 278.21 1323.15 278.21C1323.57 278.21 1323.92 278.243 1324.18 278.31C1324.44 278.377 1324.61 278.43 1324.67 278.47L1324.21 280.51C1324.14 280.463 1324 280.403 1323.8 280.33C1323.6 280.257 1323.32 280.22 1322.96 280.22C1322.41 280.22 1321.96 280.317 1321.6 280.51C1321.24 280.703 1320.95 280.96 1320.74 281.28C1320.52 281.6 1320.37 281.95 1320.28 282.33C1320.19 282.703 1320.15 283.08 1320.15 283.46V289H1317.98ZM994.42 314.37V299.38H996.59V314.37H994.42ZM1000.01 310.21C999.183 310.21 998.417 310.003 997.71 309.59C997.003 309.17 996.43 308.597 995.99 307.87C995.557 307.143 995.34 306.32 995.34 305.4C995.34 305.373 995.34 305.353 995.34 305.34C995.34 305.32 995.34 305.3 995.34 305.28L996.6 305.25C996.6 305.263 996.6 305.28 996.6 305.3C996.6 305.313 996.6 305.33 996.6 305.35C996.6 305.897 996.74 306.39 997.02 306.83C997.307 307.263 997.677 307.607 998.13 307.86C998.583 308.113 999.07 308.24 999.59 308.24C1000.44 308.24 1001.16 307.95 1001.74 307.37C1002.33 306.783 1002.62 305.883 1002.62 304.67C1002.62 303.45 1002.33 302.553 1001.75 301.98C1001.17 301.4 1000.45 301.11 999.59 301.11C999.07 301.11 998.583 301.237 998.13 301.49C997.677 301.737 997.307 302.077 997.02 302.51C996.74 302.937 996.6 303.427 996.6 303.98L995.34 303.93C995.34 303.003 995.557 302.187 995.99 301.48C996.43 300.767 997.003 300.21 997.71 299.81C998.417 299.41 999.183 299.21 1000.01 299.21C1000.87 299.21 1001.67 299.423 1002.4 299.85C1003.13 300.27 1003.72 300.887 1004.17 301.7C1004.62 302.513 1004.85 303.503 1004.85 304.67C1004.85 305.863 1004.63 306.873 1004.19 307.7C1003.75 308.527 1003.16 309.153 1002.43 309.58C1001.7 310 1000.89 310.21 1000.01 310.21ZM1010.53 310.21C1009.73 310.21 1009.03 310.083 1008.42 309.83C1007.82 309.577 1007.36 309.213 1007.02 308.74C1006.69 308.267 1006.52 307.697 1006.52 307.03C1006.52 306.317 1006.71 305.727 1007.08 305.26C1007.46 304.793 1007.98 304.433 1008.64 304.18C1009.31 303.92 1010.07 303.75 1010.91 303.67C1012.17 303.543 1013.06 303.42 1013.57 303.3C1014.09 303.18 1014.35 302.983 1014.35 302.71C1014.35 302.703 1014.35 302.697 1014.35 302.69C1014.35 302.15 1014.12 301.74 1013.66 301.46C1013.2 301.18 1012.55 301.04 1011.69 301.04C1010.79 301.04 1010.1 301.2 1009.6 301.52C1009.12 301.833 1008.87 302.333 1008.87 303.02H1006.74C1006.74 302.207 1006.95 301.517 1007.37 300.95C1007.8 300.383 1008.39 299.953 1009.13 299.66C1009.88 299.36 1010.74 299.21 1011.7 299.21C1012.59 299.21 1013.4 299.347 1014.12 299.62C1014.86 299.887 1015.44 300.287 1015.87 300.82C1016.31 301.353 1016.52 302.017 1016.52 302.81C1016.52 302.95 1016.52 303.09 1016.52 303.23C1016.52 303.363 1016.52 303.5 1016.52 303.64V307.88C1016.52 308.127 1016.53 308.367 1016.55 308.6C1016.57 308.827 1016.61 309.03 1016.66 309.21C1016.72 309.417 1016.79 309.587 1016.87 309.72C1016.96 309.853 1017.03 309.947 1017.08 310H1014.92C1014.88 309.96 1014.82 309.877 1014.74 309.75C1014.67 309.617 1014.6 309.463 1014.54 309.29C1014.48 309.123 1014.44 308.933 1014.4 308.72C1014.38 308.5 1014.36 308.263 1014.36 308.01L1014.76 308.29C1014.56 308.677 1014.26 309.013 1013.85 309.3C1013.45 309.587 1012.97 309.81 1012.4 309.97C1011.84 310.13 1011.22 310.21 1010.53 310.21ZM1010.98 308.41C1011.6 308.41 1012.17 308.313 1012.67 308.12C1013.19 307.92 1013.6 307.62 1013.9 307.22C1014.21 306.813 1014.36 306.303 1014.36 305.69V303.93L1014.87 304.6C1014.45 304.767 1013.92 304.903 1013.3 305.01C1012.69 305.11 1012.06 305.193 1011.4 305.26C1010.5 305.34 1009.83 305.497 1009.37 305.73C1008.92 305.957 1008.69 306.337 1008.69 306.87C1008.69 307.383 1008.88 307.77 1009.25 308.03C1009.63 308.283 1010.21 308.41 1010.98 308.41ZM1023.91 310.21C1022.84 310.21 1021.88 309.987 1021.04 309.54C1020.2 309.087 1019.53 308.443 1019.05 307.61C1018.57 306.777 1018.33 305.797 1018.33 304.67C1018.33 303.543 1018.57 302.573 1019.05 301.76C1019.53 300.94 1020.2 300.31 1021.04 299.87C1021.88 299.43 1022.84 299.21 1023.91 299.21C1024.71 299.21 1025.43 299.333 1026.06 299.58C1026.68 299.82 1027.21 300.14 1027.65 300.54C1028.08 300.94 1028.41 301.38 1028.64 301.86C1028.86 302.34 1028.98 302.82 1028.98 303.3C1028.98 303.307 1028.98 303.317 1028.98 303.33C1028.98 303.343 1028.98 303.357 1028.98 303.37H1026.83C1026.83 303.337 1026.82 303.3 1026.82 303.26C1026.81 303.213 1026.8 303.17 1026.8 303.13C1026.74 302.737 1026.59 302.387 1026.34 302.08C1026.08 301.773 1025.75 301.53 1025.34 301.35C1024.92 301.17 1024.44 301.08 1023.89 301.08C1023.28 301.08 1022.72 301.213 1022.21 301.48C1021.7 301.74 1021.29 302.137 1020.99 302.67C1020.68 303.203 1020.53 303.87 1020.53 304.67C1020.53 305.47 1020.68 306.143 1020.98 306.69C1021.28 307.23 1021.69 307.64 1022.2 307.92C1022.71 308.2 1023.27 308.34 1023.89 308.34C1024.55 308.34 1025.09 308.24 1025.51 308.04C1025.93 307.833 1026.24 307.56 1026.46 307.22C1026.67 306.873 1026.79 306.5 1026.83 306.1H1028.98C1028.98 306.58 1028.87 307.067 1028.65 307.56C1028.43 308.047 1028.1 308.49 1027.68 308.89C1027.25 309.29 1026.72 309.61 1026.09 309.85C1025.46 310.09 1024.73 310.21 1023.91 310.21ZM1030.97 310V294.37H1033.03V303.74L1032.5 303.49L1037.24 299.38H1039.97L1034.83 303.93L1035.35 302.96L1039.97 310H1037.66L1033.94 304.13L1034.43 304.28L1032.76 305.76L1033.03 304.77V310H1030.97ZM1044.39 310.21C1043.59 310.21 1042.89 310.083 1042.28 309.83C1041.68 309.577 1041.21 309.213 1040.88 308.74C1040.55 308.267 1040.38 307.697 1040.38 307.03C1040.38 306.317 1040.57 305.727 1040.94 305.26C1041.32 304.793 1041.84 304.433 1042.5 304.18C1043.17 303.92 1043.92 303.75 1044.77 303.67C1046.03 303.543 1046.92 303.42 1047.43 303.3C1047.95 303.18 1048.21 302.983 1048.21 302.71C1048.21 302.703 1048.21 302.697 1048.21 302.69C1048.21 302.15 1047.98 301.74 1047.52 301.46C1047.06 301.18 1046.4 301.04 1045.55 301.04C1044.65 301.04 1043.95 301.2 1043.46 301.52C1042.97 301.833 1042.73 302.333 1042.73 303.02H1040.6C1040.6 302.207 1040.81 301.517 1041.23 300.95C1041.66 300.383 1042.24 299.953 1042.99 299.66C1043.74 299.36 1044.59 299.21 1045.56 299.21C1046.45 299.21 1047.25 299.347 1047.98 299.62C1048.71 299.887 1049.3 300.287 1049.73 300.82C1050.16 301.353 1050.38 302.017 1050.38 302.81C1050.38 302.95 1050.38 303.09 1050.38 303.23C1050.38 303.363 1050.38 303.5 1050.38 303.64V307.88C1050.38 308.127 1050.39 308.367 1050.41 308.6C1050.43 308.827 1050.47 309.03 1050.52 309.21C1050.58 309.417 1050.65 309.587 1050.73 309.72C1050.82 309.853 1050.89 309.947 1050.94 310H1048.78C1048.74 309.96 1048.68 309.877 1048.6 309.75C1048.53 309.617 1048.46 309.463 1048.4 309.29C1048.34 309.123 1048.29 308.933 1048.26 308.72C1048.23 308.5 1048.22 308.263 1048.22 308.01L1048.62 308.29C1048.42 308.677 1048.12 309.013 1047.71 309.3C1047.31 309.587 1046.83 309.81 1046.26 309.97C1045.7 310.13 1045.08 310.21 1044.39 310.21ZM1044.84 308.41C1045.46 308.41 1046.02 308.313 1046.53 308.12C1047.04 307.92 1047.45 307.62 1047.76 307.22C1048.07 306.813 1048.22 306.303 1048.22 305.69V303.93L1048.73 304.6C1048.3 304.767 1047.78 304.903 1047.16 305.01C1046.55 305.11 1045.91 305.193 1045.26 305.26C1044.36 305.34 1043.68 305.497 1043.23 305.73C1042.78 305.957 1042.55 306.337 1042.55 306.87C1042.55 307.383 1042.74 307.77 1043.11 308.03C1043.49 308.283 1044.07 308.41 1044.84 308.41ZM1059.59 309.15C1060.19 309.203 1060.71 309.317 1061.17 309.49C1061.62 309.657 1061.97 309.903 1062.23 310.23C1062.49 310.563 1062.62 311 1062.62 311.54C1062.62 312.147 1062.41 312.673 1062 313.12C1061.59 313.573 1060.98 313.923 1060.17 314.17C1059.35 314.423 1058.34 314.55 1057.14 314.55C1055.41 314.55 1054.09 314.3 1053.19 313.8C1052.28 313.3 1051.83 312.62 1051.83 311.76C1051.83 311.5 1051.86 311.27 1051.92 311.07C1051.98 310.87 1052.05 310.703 1052.14 310.57L1054.16 310.87C1054.11 310.937 1054.06 311.033 1054.02 311.16C1053.97 311.293 1053.95 311.453 1053.95 311.64C1053.95 312.113 1054.24 312.45 1054.82 312.65C1055.4 312.85 1056.2 312.95 1057.23 312.95C1057.98 312.95 1058.6 312.897 1059.1 312.79C1059.6 312.69 1059.97 312.543 1060.22 312.35C1060.46 312.157 1060.59 311.93 1060.59 311.67C1060.59 311.277 1060.42 311.03 1060.08 310.93C1059.74 310.83 1059.33 310.76 1058.85 310.72L1054.82 310.39C1054.12 310.33 1053.54 310.12 1053.1 309.76C1052.66 309.4 1052.44 308.947 1052.44 308.4C1052.44 308.06 1052.52 307.743 1052.7 307.45C1052.87 307.157 1053.07 306.91 1053.3 306.71C1053.53 306.51 1053.73 306.387 1053.9 306.34L1055.32 307.02C1055.16 307.04 1054.98 307.143 1054.76 307.33C1054.54 307.51 1054.44 307.723 1054.44 307.97C1054.44 308.197 1054.53 308.383 1054.72 308.53C1054.91 308.677 1055.28 308.773 1055.84 308.82L1059.59 309.15ZM1060.92 299.38H1062.89L1062.08 303.53C1061.93 304.303 1061.66 305.003 1061.27 305.63C1060.88 306.25 1060.35 306.74 1059.69 307.1C1059.03 307.46 1058.2 307.64 1057.22 307.64C1056.19 307.64 1055.31 307.463 1054.57 307.11C1053.83 306.757 1053.26 306.267 1052.86 305.64C1052.46 305.007 1052.27 304.287 1052.27 303.48C1052.27 302.66 1052.47 301.927 1052.88 301.28C1053.29 300.633 1053.86 300.127 1054.58 299.76C1055.3 299.393 1056.13 299.21 1057.07 299.21C1057.85 299.21 1058.55 299.343 1059.16 299.61C1059.77 299.877 1060.26 300.217 1060.62 300.63C1060.98 301.043 1061.17 301.473 1061.21 301.92L1060.59 301.99L1060.92 299.38ZM1057.21 305.87C1057.79 305.87 1058.29 305.777 1058.71 305.59C1059.13 305.397 1059.45 305.12 1059.68 304.76C1059.9 304.393 1060.02 303.953 1060.02 303.44C1060.02 302.933 1059.9 302.5 1059.68 302.14C1059.45 301.773 1059.13 301.493 1058.71 301.3C1058.29 301.1 1057.79 301 1057.22 301C1056.66 301 1056.17 301.103 1055.75 301.31C1055.33 301.51 1055 301.793 1054.76 302.16C1054.52 302.527 1054.4 302.963 1054.4 303.47C1054.4 303.977 1054.51 304.41 1054.74 304.77C1054.96 305.123 1055.29 305.397 1055.71 305.59C1056.13 305.777 1056.63 305.87 1057.21 305.87ZM1064.84 305.45V303.76H1072.66L1072.36 304.26C1072.36 304.22 1072.36 304.18 1072.36 304.14C1072.36 304.093 1072.36 304.053 1072.36 304.02C1072.36 303.48 1072.24 302.983 1072.01 302.53C1071.78 302.07 1071.43 301.703 1070.96 301.43C1070.5 301.15 1069.92 301.01 1069.23 301.01C1068.54 301.01 1067.93 301.16 1067.4 301.46C1066.88 301.753 1066.47 302.173 1066.18 302.72C1065.89 303.26 1065.75 303.91 1065.75 304.67C1065.75 305.443 1065.89 306.11 1066.17 306.67C1066.45 307.223 1066.85 307.65 1067.38 307.95C1067.91 308.25 1068.54 308.4 1069.27 308.4C1069.78 308.4 1070.23 308.35 1070.6 308.25C1070.98 308.143 1071.29 308.003 1071.53 307.83C1071.78 307.657 1071.96 307.47 1072.09 307.27C1072.22 307.063 1072.29 306.86 1072.31 306.66H1074.47C1074.43 307.093 1074.29 307.523 1074.04 307.95C1073.8 308.37 1073.46 308.753 1073.01 309.1C1072.57 309.44 1072.03 309.713 1071.39 309.92C1070.76 310.12 1070.03 310.22 1069.2 310.22C1068.09 310.22 1067.12 309.987 1066.29 309.52C1065.46 309.053 1064.81 308.407 1064.34 307.58C1063.87 306.747 1063.64 305.793 1063.64 304.72C1063.64 303.627 1063.88 302.667 1064.35 301.84C1064.82 301.013 1065.48 300.37 1066.32 299.91C1067.16 299.443 1068.12 299.21 1069.21 299.21C1070.32 299.21 1071.27 299.443 1072.08 299.91C1072.89 300.377 1073.52 301.02 1073.96 301.84C1074.4 302.66 1074.62 303.603 1074.62 304.67C1074.62 304.797 1074.62 304.943 1074.61 305.11C1074.6 305.277 1074.59 305.39 1074.58 305.45H1064.84ZM1080.82 310.21C1080.19 310.21 1079.59 310.14 1079.03 310C1078.47 309.86 1077.98 309.657 1077.55 309.39C1077.13 309.117 1076.8 308.78 1076.56 308.38C1076.33 307.98 1076.21 307.517 1076.21 306.99C1076.21 306.943 1076.21 306.897 1076.21 306.85C1076.21 306.797 1076.21 306.753 1076.21 306.72H1078.37C1078.37 306.753 1078.37 306.783 1078.37 306.81C1078.37 306.837 1078.37 306.873 1078.37 306.92C1078.37 307.407 1078.59 307.777 1079.04 308.03C1079.49 308.277 1080.11 308.4 1080.88 308.4C1081.33 308.4 1081.75 308.353 1082.12 308.26C1082.5 308.167 1082.8 308.023 1083.02 307.83C1083.25 307.637 1083.36 307.39 1083.36 307.09C1083.36 306.603 1083.12 306.257 1082.64 306.05C1082.17 305.843 1081.45 305.66 1080.48 305.5C1079.95 305.407 1079.44 305.287 1078.95 305.14C1078.46 304.993 1078.02 304.8 1077.63 304.56C1077.24 304.313 1076.93 304.01 1076.7 303.65C1076.47 303.283 1076.36 302.843 1076.36 302.33C1076.36 301.663 1076.56 301.097 1076.96 300.63C1077.36 300.163 1077.9 299.81 1078.58 299.57C1079.26 299.33 1080.01 299.21 1080.83 299.21C1081.62 299.21 1082.36 299.34 1083.03 299.6C1083.71 299.853 1084.26 300.223 1084.67 300.71C1085.08 301.19 1085.29 301.78 1085.29 302.48C1085.29 302.507 1085.29 302.537 1085.29 302.57C1085.29 302.603 1085.29 302.633 1085.29 302.66H1083.14C1083.14 302.633 1083.14 302.61 1083.14 302.59C1083.14 302.57 1083.14 302.547 1083.14 302.52C1083.14 302.173 1083.03 301.89 1082.81 301.67C1082.59 301.45 1082.3 301.287 1081.95 301.18C1081.6 301.067 1081.23 301.01 1080.84 301.01C1080.48 301.01 1080.12 301.05 1079.75 301.13C1079.39 301.203 1079.09 301.333 1078.85 301.52C1078.61 301.7 1078.49 301.947 1078.49 302.26C1078.49 302.58 1078.61 302.837 1078.84 303.03C1079.07 303.217 1079.4 303.373 1079.83 303.5C1080.26 303.62 1080.75 303.73 1081.32 303.83C1081.84 303.923 1082.35 304.043 1082.84 304.19C1083.33 304.33 1083.78 304.517 1084.17 304.75C1084.57 304.983 1084.89 305.283 1085.12 305.65C1085.36 306.017 1085.48 306.467 1085.48 307C1085.48 307.553 1085.35 308.03 1085.1 308.43C1084.85 308.83 1084.5 309.163 1084.06 309.43C1083.63 309.69 1083.13 309.883 1082.57 310.01C1082.02 310.143 1081.43 310.21 1080.82 310.21ZM1088.74 310.27C1088.37 310.27 1088.05 310.143 1087.79 309.89C1087.54 309.637 1087.41 309.323 1087.41 308.95C1087.41 308.583 1087.54 308.273 1087.79 308.02C1088.05 307.76 1088.37 307.63 1088.74 307.63C1089.1 307.63 1089.41 307.76 1089.67 308.02C1089.93 308.273 1090.06 308.583 1090.06 308.95C1090.06 309.323 1089.93 309.637 1089.67 309.89C1089.41 310.143 1089.1 310.27 1088.74 310.27Z" fill="white"/>
<defs>
<linearGradient id="paint0_linear_2471_10006" x1="720" y1="-126" x2="720" y2="973.513" gradientUnits="userSpaceOnUse">
<stop stop-color="#0A6F03"/>
<stop offset="1" stop-color="#005E0D" stop-opacity="0"/>
</linearGradient>
<clipPath id="clip0_2471_10006">
<rect width="1440" height="432" fill="white"/>
</clipPath>
<clipPath id="clip1_2471_10006">
<rect width="1440" height="1515" fill="white" transform="translate(0 -670)"/>
</clipPath>
</defs>
</svg>
