<svg width="24" height="30" viewBox="0 0 24 30" fill="none" xmlns="http://www.w3.org/2000/svg">
<path d="M19.8192 15.8978C19.8334 14.7919 20.1272 13.7075 20.6731 12.7456C21.219 11.7837 21.9994 10.9756 22.9416 10.3963C22.343 9.54151 21.5534 8.83801 20.6354 8.34174C19.7174 7.84546 18.6964 7.57007 17.6533 7.53743C15.4284 7.30389 13.2713 8.86882 12.1375 8.86882C10.9818 8.86882 9.23612 7.56062 7.35632 7.5993C6.14041 7.63858 4.95541 7.99216 3.91678 8.62558C2.87815 9.259 2.02131 10.1507 1.42975 11.2137C-1.13278 15.6503 0.778637 22.1706 3.23333 25.7569C4.46146 27.513 5.89679 29.4745 7.7749 29.405C9.61274 29.3287 10.2991 28.233 12.5176 28.233C14.7154 28.233 15.3594 29.405 17.2756 29.3607C19.2477 29.3287 20.4902 27.5969 21.6752 25.8242C22.5576 24.5729 23.2367 23.19 23.6871 21.7266C22.5414 21.242 21.5637 20.4309 20.8758 19.3944C20.188 18.3578 19.8205 17.1418 19.8192 15.8978Z" fill="white"/>
<path d="M16.1998 5.17874C17.2751 3.88793 17.8049 2.22881 17.6766 0.553711C16.0338 0.726252 14.5164 1.51139 13.4266 2.75268C12.8937 3.35908 12.4856 4.06455 12.2256 4.82876C11.9656 5.59298 11.8587 6.40095 11.9112 7.20648C12.7328 7.21494 13.5457 7.03685 14.2886 6.68561C15.0315 6.33437 15.685 5.81915 16.1998 5.17874Z" fill="white"/>
</svg>
