<svg width="24" height="20" viewBox="0 0 24 20" fill="none" xmlns="http://www.w3.org/2000/svg">
<path fill-rule="evenodd" clip-rule="evenodd" d="M12.1213 9.23312H14.8891C15.3088 9.23312 15.6386 8.88614 15.6386 8.46774C15.6386 8.03912 15.3088 7.70235 14.8891 7.70235H12.1213C11.7016 7.70235 11.3719 8.03912 11.3719 8.46774C11.3719 8.88614 11.7016 9.23312 12.1213 9.23312ZM18.1766 3.92749C18.7861 3.92749 19.1858 4.1418 19.5855 4.61123C19.9852 5.08067 20.0551 5.7542 19.9652 6.36549L19.0159 13.06C18.8361 14.3469 17.7569 15.2949 16.4879 15.2949H5.58639C4.25742 15.2949 3.15828 14.255 3.04837 12.908L2.12908 1.7834L0.620259 1.51807C0.22057 1.44664 -0.0592117 1.04864 0.0107338 0.640433C0.0806793 0.223045 0.470376 -0.0535127 0.880056 0.0087383L3.2632 0.375101C3.60293 0.437352 3.85274 0.722074 3.88272 1.06905L4.07257 3.35499C4.10254 3.68257 4.36234 3.92749 4.68209 3.92749H18.1766ZM5.42604 16.9078C4.5867 16.9078 3.90723 17.6018 3.90723 18.459C3.90723 19.306 4.5867 20 5.42604 20C6.2554 20 6.93487 19.306 6.93487 18.459C6.93487 17.6018 6.2554 16.9078 5.42604 16.9078ZM16.6673 16.9078C15.8279 16.9078 15.1484 17.6018 15.1484 18.459C15.1484 19.306 15.8279 20 16.6673 20C17.4966 20 18.1761 19.306 18.1761 18.459C18.1761 17.6018 17.4966 16.9078 16.6673 16.9078Z" fill="white"/>
<circle cx="19.5" cy="4.5" r="4.5" fill="#F26147"/>
</svg>
