<svg width="360" height="604" viewBox="0 0 360 604" fill="none" xmlns="http://www.w3.org/2000/svg">
<g clip-path="url(#clip0_26_1475)">
<rect x="-833.411" width="2027.41" height="604" fill="url(#paint0_radial_26_1475)"/>
<path d="M1118.46 666.68C1060.62 661.814 1002.79 657.258 945.675 651.633C874.459 644.603 803.822 637.094 731.752 630.836C661.197 624.705 588.935 619.741 515.323 618.18C480.376 617.435 445.319 617.519 410.344 616.985C378.84 616.507 348.464 614.974 320.87 610.306C297.434 606.34 284.932 600.659 268.849 594.5C248.277 586.611 217.929 584.854 185.185 585.332C153.378 585.81 122.121 587.961 90.2583 588.271C63.6529 588.629 37.0581 587.378 11.0285 584.544C-68.2012 575.292 -68.8346 547.759 -114.88 530.111C-148.505 517.216 -200.912 510.677 -255.081 509.018C-303.192 507.528 -352.018 509.117 -399.964 507.021C-450.085 504.814 -490.54 497.347 -517.5 484.776C-552.365 468.506 -578.086 450.633 -619.202 435.489C-677.695 413.946 -762.405 401.276 -851.714 392.811V677.212H1213.71V676.017C1182.41 672.501 1150.66 669.389 1118.46 666.68Z" fill="#00441D"/>
<path d="M1125.42 438.779C1088.86 442.648 1054.61 450.863 1025.46 462.756C1003.07 471.74 983.679 481.468 956.608 489.428C924.415 498.805 884.429 503.465 839.76 505.417C727.043 510.33 608.433 498.665 499.433 510.849C452.837 516.057 413.043 524.817 376.141 534.433C338.66 544.189 302.446 554.269 262.515 563.211C193.667 578.652 116.42 590.416 29.3695 593.673C-17.7764 595.269 -65.0952 594.983 -112.154 592.817C-139.169 591.651 -166.158 590.276 -191.686 587.384C-212.692 584.925 -233.326 581.702 -253.429 577.74C-275.46 573.529 -296.527 568.826 -318.503 564.558C-342.596 560.014 -367.358 556.451 -392.556 553.904C-440.611 548.822 -492.357 546.155 -538.513 539.585C-573.983 534.503 -601.274 526.614 -626.445 517.91C-661.282 505.866 -699.643 495.534 -751.72 490.284C-784.674 487.101 -818.177 485.629 -851.714 485.89L-851.714 677.212H1213.71V433.641C1184.05 434.044 1154.5 435.763 1125.42 438.779V438.779Z" fill="#287554"/>
<path d="M1184.8 547.689C1157.84 554.816 1123.94 557.163 1088.66 558.176C1076.07 558.541 1063.46 558.724 1050.87 559.047C1053.02 559.047 1041.7 559.469 1038.98 559.666C1036.75 559.82 1025.98 560.987 1027.19 560.762C1003.51 563.869 981.862 568.17 959.913 572.162C903.806 582.428 844.642 587.659 785.04 587.625C730.513 587.625 676.481 584.055 621.899 585.193C619.448 585.193 614.353 585.404 613.637 585.404L608.129 585.671C601.382 586.037 594.773 586.501 588.274 587.077C586.704 587.218 585.19 587.372 583.647 587.541L581.224 587.963L577.396 588.623C576.646 589.022 575.692 589.305 574.642 589.439C571.695 590.198 567.62 591.069 566.38 591.463L564.315 592.152C561.804 593.349 559.085 594.426 556.191 595.371C553.299 596.594 550.49 597.831 547.599 599.04C528.744 607.037 507.679 613.569 485.085 618.425C463.057 623.111 440.317 626.872 417.091 629.67C368.265 635.842 317.373 640.34 267.692 645.864C216.194 651.614 164.724 657.012 109.37 658.516C54.0169 660.02 -0.317512 654.58 -48.1528 646.947C-92.7385 639.848 -132.753 630.486 -178.991 624.216L-184.499 623.443L-187.748 623.092C-192.54 622.543 -197.332 621.981 -202.151 621.475C-213.167 620.294 -224.182 619.24 -235.418 618.256C-257.615 616.33 -280.114 614.756 -302.779 613.364C-349.815 610.468 -397.375 608.388 -444.687 605.942C-539.174 601.036 -637.46 594.26 -715.644 577.251C-737.86 572.635 -759.2 566.988 -779.396 560.383C-798.15 554.001 -814.784 547.112 -832.106 540.407C-833.097 540.028 -842.075 536.837 -834.254 539.578C-836.072 538.945 -837.779 538.285 -839.569 537.652C-843.149 536.368 -846.821 535.117 -850.585 533.899L-851.714 533.604V677.212H1213.71V537.568C1204.83 541.47 1195.13 544.864 1184.8 547.689V547.689Z" fill="#00441D"/>
<path d="M1072.44 449.934C993.426 451.621 914.518 456.68 837.95 466.954C701.472 485.225 571.354 515.61 443.273 545.32C188.406 604.46 -78.0531 669.742 -365.684 660.804C-456.899 657.993 -544.645 644.571 -633.409 634.466C-677.461 629.463 -720.054 622.731 -763.665 617.095C-781.94 614.629 -800.794 613.461 -819.694 613.624C-830.321 613.736 -841.086 614.045 -851.714 613.82V618.276C-826.577 619.007 -800.669 617.081 -775.89 619.99C-737.344 624.544 -700.01 631.529 -661.272 635.787C-583.906 644.29 -507.476 655.632 -429.119 661.605C-288.704 672.3 -144.296 662.223 -8.72647 642.561C261.945 603.294 504.01 526.446 770.744 481.725C856.554 467.283 945.572 458.388 1035.72 455.247C1093.53 453.223 1154.85 451.523 1213.71 455.486V451.27C1166.94 448.36 1118.89 448.951 1072.44 449.934Z" fill="#ECE7DD"/>
<path d="M1130.07 511.399C1028.14 512.628 926.501 517.581 825.944 526.221C725.537 534.696 626.815 547.752 530.959 565.233C435.504 582.873 343.244 604.823 253.489 628.986C203.173 642.539 152.581 656.121 103.835 671.098C97.3354 673.098 90.9185 675.141 84.5566 677.212H100.392C140.436 664.673 182.077 653.515 223.36 642.089C311.131 617.813 400.996 595.369 494.082 576.871C680.2 539.873 878.877 521.571 1077.94 516.668C1123.13 515.555 1168.46 515.048 1213.71 515.485V511.258C1185.82 510.977 1157.94 511.023 1130.07 511.399Z" fill="#287554"/>
<path d="M-72.6068 -161.7C-74.8573 -153.404 -77.5501 -145.233 -80.6739 -137.225C-83.9994 -128.48 -85.4709 -119.201 -86.9894 -109.982C-89.8938 -92.2801 -94.0805 -74.8634 -97.0111 -57.1441C-99.563 -41.7423 -102.105 -26.9203 -101.447 -11.1933C-101.145 -4.14204 -101.186 2.74359 -101.525 9.75012C-101.896 17.4044 -105.16 24.4939 -104.948 32.3219C-104.779 40.8413 -104.175 49.1722 -105.191 57.6898C-106.014 64.5789 -104.97 70.8233 -105.061 77.7121C-105.143 85.0621 -102.105 91.9369 -100.037 98.8861C-97.5506 107.166 -99.3221 115.556 -98.3332 124.093C-97.485 130.875 -96.3404 137.762 -95.085 144.486C-94.5597 147.293 -93.4625 149.926 -92.9108 152.715C-92.2051 156.195 -92.3614 159.535 -91.3832 162.994C-86.9216 179.145 -79.2736 194.648 -72.2911 209.783C-67.9601 219.177 -61.8492 227.712 -56.4275 236.484C-52.1328 243.434 -48.8355 250.085 -43.2779 256.171C-39.9638 259.808 -36.3162 263.035 -32.8529 266.498C-29.7511 269.573 -27.5825 273.166 -24.7063 276.322C-21.3036 280.059 -17.3257 283.25 -13.8334 286.859C-11.2554 289.518 -9.474 292.628 -6.45216 294.828C-5.75766 295.342 -4.91441 294.22 -5.57748 293.707C-8.23993 291.194 -9.65865 287.823 -11.9162 284.975C-14.5906 281.61 -17.9097 278.686 -20.8646 275.582C-26.0515 270.148 -30.6218 264.323 -35.956 259.033C-48.1042 247.044 -55.5337 231.472 -64.465 217.065C-73.3962 202.658 -80.105 185.275 -85.4348 169.192C-86.6204 165.614 -88.1716 161.824 -88.4185 158.056C-88.5748 155.511 -88.2453 153.279 -88.8627 150.744C-90.794 142.749 -92.174 134.63 -92.9929 126.445C-93.7558 119.713 -92.8725 113.509 -92.8337 106.768C-92.8012 99.0807 -96.0119 91.8296 -97.5785 84.4059C-100.489 70.4677 -97.7195 56.0693 -98.3219 41.9353C-98.6991 33.2962 -98.7812 25.8355 -97.0945 17.2825C-96.0581 11.1093 -95.5813 4.85507 -95.6702 -1.40392C-95.5626 -9.08032 -96.9307 -16.7633 -96.7199 -24.4776C-96.5121 -31.9336 -95.2532 -38.929 -94.4085 -46.2773C-93.2794 -56.6804 -91.9061 -67.0563 -90.1715 -77.3537C-88.788 -85.6915 -86.4955 -93.8297 -85.3858 -102.228C-84.106 -111.991 -83.368 -122.393 -80.6032 -131.884C-77.7267 -141.766 -74.6865 -151.537 -72.0627 -161.516C-72.0576 -161.582 -72.0754 -161.647 -72.1131 -161.7C-72.1508 -161.754 -72.2061 -161.793 -72.2693 -161.81C-72.3325 -161.827 -72.3999 -161.822 -72.4596 -161.795C-72.5193 -161.768 -72.5677 -161.721 -72.5965 -161.662L-72.6068 -161.7Z" fill="#00441D"/>
<path d="M-98.4899 -38.2783C-96.8176 -31.4601 -92.7512 -25.0155 -88.3096 -19.6711C-82.2978 -12.4285 -76.5519 -5.06304 -70.1633 1.89311C-64.065 8.53538 -58.5603 15.9242 -50.7738 20.7124C-46.911 23.0889 -42.8497 24.7834 -39.2403 27.5988C-36.3532 30.0353 -33.2696 32.2289 -30.0209 34.1572C-14.9676 42.4585 1.8133 47.1372 18.9902 47.8222C27.7468 48.1144 36.4517 47.4826 45.2031 47.7556C50.2772 47.9214 56.3444 47.8314 60.2583 44.206C60.4626 44.0035 60.6175 43.7568 60.711 43.4849C60.8045 43.2129 60.8341 42.9231 60.7975 42.6379C60.761 42.3526 60.6591 42.0796 60.5 41.84C60.341 41.6005 60.1289 41.4008 59.8802 41.2565C53.8123 37.997 47.145 37.1552 41.3089 33.1843C34.7939 28.7562 31.5235 21.9746 26.5727 16.0762C17.4007 5.15566 7.1615 -5.32425 -6.22621 -10.7451C-21.1287 -16.7804 -37.5662 -19.3125 -53.2121 -22.7368C-60.6633 -24.23 -67.8392 -26.8649 -74.4861 -30.5486C-78.3391 -32.7731 -83.3722 -35.0938 -86.7174 -38.0006C-89.1858 -40.1735 -90.935 -42.6628 -93.7262 -44.5019C-95.6799 -45.7924 -97.2615 -42.7713 -95.5072 -41.4171C-92.4249 -39.0685 -90.4001 -35.7048 -87.216 -33.4763C-84.0319 -31.2477 -80.7415 -29.7382 -77.5039 -27.7714C-71.8724 -24.2365 -65.7437 -21.5639 -59.3214 -19.8424C-43.6846 -15.9518 -27.5055 -13.8453 -12.1435 -8.63394C3.76256 -3.23854 17.1132 9.31413 26.8866 22.8254C30.4222 27.7116 33.5483 32.3778 38.5412 35.8945C44.7631 40.2671 51.5598 41.0535 58.0686 44.5349L57.6906 41.5855C52.9829 45.8256 44.0613 43.7636 38.4229 43.646C30.6926 43.491 23.0028 44.0261 15.2683 43.6249C-0.273754 42.7804 -19.0428 37.1627 -31.9979 28.3174C-34.5851 26.5473 -36.8156 24.3004 -39.4239 22.5669C-42.4012 20.5715 -45.7485 19.273 -48.784 17.4066C-55.8826 13.0319 -61.0554 6.41999 -66.7149 0.453758C-72.3744 -5.51247 -78.0246 -11.6359 -83.1647 -18.1639C-88.1069 -24.4151 -93.6344 -31.0041 -95.6736 -38.9608C-96.1144 -40.7597 -98.8838 -40.0176 -98.443 -38.2186L-98.4899 -38.2783Z" fill="#00441D"/>
<path d="M57.0277 40.8456C49.8485 42.0169 40.0233 37.7749 33.6343 35.2405C29.2849 33.5097 25.1157 31.2978 20.6443 29.9192C14.2002 28.1771 7.64755 26.8651 1.02953 25.9917C-4.04428 25.0226 -8.99409 23.4899 -13.7277 21.4222C-19.9323 19.0527 -25.99 16.3153 -31.8687 13.2245C-37.5132 10.1607 -44.4125 7.29917 -49.0077 2.72776C-52.584 -0.848938 -55.1371 -4.76161 -59.3585 -7.7841C-62.1056 -9.72778 -65.3178 -10.7533 -68.0776 -12.5905C-70.4247 -14.1569 -72.0707 -16.2615 -74.5548 -17.6469C-74.6906 -17.7253 -74.8521 -17.7466 -75.0035 -17.706C-75.155 -17.6654 -75.2842 -17.5663 -75.3626 -17.4305C-75.4411 -17.2947 -75.4623 -17.1333 -75.4217 -16.9818C-75.3811 -16.8303 -75.282 -16.7011 -75.1461 -16.6227C-72.7075 -15.2148 -70.9921 -13.0051 -68.8027 -11.3346C-65.5234 -8.9048 -61.8531 -7.20841 -58.8375 -4.37815C-54.3838 -0.181089 -51.7913 5.07119 -46.5409 8.39514C-35.3052 15.5161 -23.023 20.5425 -10.7172 25.3875C1.12665 30.0471 14.2513 29.4472 25.949 34.754C31.6288 37.3341 37.455 39.9988 43.6109 41.1631C48.1632 42.0356 52.9024 43.6825 57.52 42.8369C58.8081 42.6051 58.2735 40.687 57.0047 40.9136L57.0277 40.8456Z" fill="#00441D"/>
<path d="M-94.8751 101.265C-91.4354 109.64 -86.099 116.785 -82.1377 124.876C-78.7275 131.878 -74.6301 138.524 -69.9057 144.716C-59.2245 158.552 -45.1299 169.373 -29.0049 176.118C-15.5347 181.846 0.759535 183.19 15.2787 182.371C31.5639 181.45 45.3453 173.377 59.0595 165.477C60.222 164.815 59.8212 162.665 58.3361 162.815C51.9541 163.423 42.9485 162.97 37.2533 159.91C31.8752 157.033 27.4981 150.929 22.6902 147.064C14.4943 140.478 5.23828 132.745 -4.99535 129.633C-16.0521 126.257 -28.8799 128.426 -40.1944 128.819C-47.1284 129.059 -53.1983 130.562 -60.2358 128.953C-67.4072 127.096 -74.2951 124.278 -80.7128 120.578C-81.1041 120.352 -81.5691 120.291 -82.0055 120.407C-82.4419 120.524 -82.814 120.81 -83.0399 121.201C-83.2658 121.593 -83.3271 122.057 -83.2101 122.494C-83.0932 122.93 -82.8077 123.302 -82.4164 123.528C-72.3089 129.478 -60.2519 134.894 -48.2387 133.685C-41.7656 133.033 -35.3918 133.088 -28.9244 132.53C-21.3791 131.879 -13.3585 131.193 -5.99565 133.477C5.93483 137.114 17.5415 147.196 26.7998 155.208C31.3872 159.173 34.1976 162.584 40.1789 164.135C46.1103 165.673 52.2586 166.2 58.3653 165.694L57.6489 163.02C43.5318 170.802 29.721 178.419 13.0431 178.528C-1.86238 178.636 -17.7606 177.001 -31.2014 170.151C-37.5666 166.948 -43.6475 163.209 -49.3781 158.974C-56.6138 153.62 -63.0287 147.239 -68.4197 140.031C-72.9619 134.157 -76.3968 127.491 -80.0618 121.084C-84.0464 113.906 -89.0365 107.399 -92.5412 99.8973C-93.2466 98.3032 -95.5683 99.6777 -94.9431 101.242L-94.8751 101.265Z" fill="#00441D"/>
<path d="M-77.8572 127.656C-73.5332 137.062 -61.8015 141.803 -53.4254 146.753C-42.0761 153.451 -31.1618 160.566 -18.5946 164.733C-12.233 166.78 -5.56524 167.508 0.941848 169.021C6.3683 170.252 11.8599 171.176 17.3904 171.787C23.0788 172.438 28.1019 170.721 33.6684 171.301C37.7854 171.833 41.9642 171.631 46.0107 170.704C47.3236 170.373 47.1016 168.083 45.7558 168.33C40.9436 168.95 36.9162 168.266 32.2023 167.983C27.897 167.725 24.016 169.435 19.5882 169.219C8.07672 168.394 -3.32815 166.459 -14.4675 163.441C-26.5769 160.368 -37.0059 153.68 -47.6991 147.506C-53.2225 144.317 -58.7459 141.128 -64.3538 138.086C-69.2944 135.38 -74.1814 132.412 -76.7876 127.07C-77.12 126.407 -78.1004 126.979 -77.7873 127.648L-77.8572 127.656Z" fill="#00441D"/>
<path d="M-52.3132 237.916C-49.9865 247.6 -36.3768 248.272 -29.1737 251.536C-22.5587 254.448 -16.1595 257.827 -10.0248 261.649C-3.51715 265.78 3.30827 269.135 8.32467 275.202C17.1328 285.88 20.6695 300.31 22.8767 313.663C23.865 319.582 24.9354 325.5 28.1641 330.665C30.0801 333.738 32.1612 336.581 33.9792 339.712C35.1127 341.635 36.9515 342.842 38.01 344.754L38.7838 341.949C35.5115 344.238 28.5565 338.207 25.7549 336.752C21.2772 334.283 16.5883 332.217 11.7437 330.581C4.9774 328.447 -1.64954 325.986 -8.42611 323.813C-16.0586 321.292 -23.901 319.642 -29.6524 313.525C-34.5032 308.184 -38.7544 302.328 -42.3298 296.061C-45.4749 290.555 -45.0105 283.134 -45.8204 276.765C-46.6185 270.922 -46.9816 265.028 -46.9067 259.132C-46.7391 254.027 -45.2301 249.696 -46.8265 244.661C-47.5913 242.268 -51.3538 243.266 -50.6379 245.63C-48.8381 251.27 -51.0877 257.222 -50.5914 263.036C-49.9283 270.589 -48.8131 278.597 -48.7175 286.147C-48.6287 292.864 -46.5215 296.958 -42.5819 302.468C-38.427 308.28 -34.5714 315.4 -28.7265 319.75C-22.8817 324.1 -15.1139 325.626 -8.32562 327.919C-0.165072 330.68 8.79483 333.154 16.5263 336.968C21.5866 339.466 26.3343 342.338 31.3495 344.745C34.2806 346.145 37.624 347.506 40.5702 345.501C41.0395 345.227 41.3831 344.78 41.5277 344.256C41.6723 343.732 41.6065 343.172 41.3442 342.696C38.9574 338.529 36.2729 334.54 33.3118 330.759C28.3467 324.153 27.4737 317.049 26.0593 309.193C24.0019 297.86 20.1296 285.87 13.3013 276.466C6.03898 266.518 -5.55869 260.699 -16.0137 254.761C-21.4102 251.652 -27.1447 249.17 -33.1054 247.364C-39.1523 245.645 -48.8398 244.994 -50.8004 237.408C-51.0871 236.3 -52.7866 236.765 -52.5191 237.879L-52.3132 237.916Z" fill="#00441D"/>
<path d="M2.54847 94.3205C-6.79136 88.9281 -15.1999 103.436 -5.83573 108.842C3.52849 114.249 11.9005 99.7199 2.54847 94.3205Z" fill="#00441D"/>
<path d="M604.619 496.83C598.864 492.314 592.123 489.241 584.952 487.864C573.468 485.521 563.429 488.481 556.055 497.697C551.393 503.539 543.995 503.218 538.51 507.217C539.918 504.553 541.6 502.046 543.529 499.735C545.573 497.088 548.409 494.706 549.45 491.699C552.962 481.632 560.383 477.579 570.197 476.407C574.422 476.007 578.616 475.328 582.753 474.377C588.581 472.893 593.632 470.229 594.976 463.443C595.354 462.172 596.184 461.085 597.307 460.389C600.71 458.273 604.3 456.484 607.75 454.414C608.91 453.77 609.827 452.76 610.361 451.54C611.503 447.917 614.401 446.019 617.074 443.863C617.781 443.301 618.628 442.887 620.252 441.848C616.802 441.848 614.23 442.45 612.972 439.38C612.762 438.873 610.641 438.599 609.763 439.021C606.895 440.38 604.253 439.958 601.324 439.162C591.611 436.522 582.062 437.6 573.445 442.661C562.986 448.784 558.277 458.975 555.853 470.503C555.122 473.978 554.299 477.618 552.597 480.656C549.955 485.342 546.528 489.543 543.389 493.932C542.668 494.809 541.889 495.636 541.058 496.408L539.994 495.986C540.266 493.386 540.196 490.691 540.887 488.177C542.006 484.186 543.832 480.367 544.99 476.407C545.946 473.103 547.08 469.597 546.901 466.254C546.417 457.039 542.504 448.344 535.938 441.895C531.687 437.615 526.924 433.882 524.111 428.361C524.049 428.236 523.715 428.259 522.557 428.009C521.065 432.383 518.898 436.78 518.183 441.395C517.295 446.561 517.255 451.837 518.066 457.015C520.335 469.511 528.237 479.016 536.186 488.317C539.706 492.449 540.359 497.119 537.74 501.883C535.122 506.647 532.806 511.395 530.335 516.144C530.071 516.659 529.683 517.12 528.828 518.354V509.388L524.127 511.809C524.049 510.607 524.003 509.896 523.956 509.193L523.179 508.568C520.071 511.512 516.279 514.035 513.987 517.51C511.088 521.915 509.216 527.046 507.273 532.006C506.108 534.973 504.818 538.293 505.067 541.331C505.556 547.329 501.492 551.483 499.977 556.81C498.742 554.818 497.7 552.819 497.522 550.741C497.032 545.056 496.745 539.347 496.706 533.638C496.706 529.553 496.628 525.313 497.63 521.415C499.837 512.825 500.404 504.523 495.369 496.783C493.38 493.722 490.404 491.316 488.43 488.247C486.566 485.349 484.219 484.225 480.194 484.342C478.943 490.152 477.249 495.893 476.581 501.758C476.06 506.358 475.726 511.473 477.21 515.683C479.456 522.04 483.294 527.827 486.604 533.778C487.086 534.63 488.353 535.192 489.371 535.543C490.777 536.003 492.004 536.896 492.878 538.096C493.751 539.296 494.226 540.742 494.235 542.229C494.592 551.296 497.763 559.598 500.676 567.954C502.774 573.976 504.157 579.81 500.972 585.855C499.969 587.76 499.542 590.158 498.135 591.634C494.359 595.601 490.187 599.186 486.177 602.927C485.486 603.567 484.81 604.224 484.134 604.88L483.426 604.427C487.086 598.608 491.888 593.235 491.826 585.862C491.879 582.265 491.19 578.696 489.802 575.38C488.414 572.063 486.357 569.072 483.761 566.596C483.167 567.831 482.648 569.101 482.207 570.399C480.822 575.775 477.687 580.531 473.302 583.91C472.259 584.765 471.299 585.717 470.435 586.753C464.553 593.43 464.032 599.35 467.793 607.441C470.427 613.111 471.577 619.109 467.933 625.334C467.514 624.636 467.143 623.91 466.821 623.162C463.783 614.001 460.838 604.801 457.738 595.664C455.12 587.94 456.145 580.895 461.056 574.382C462.49 572.659 463.752 570.799 464.825 568.829C471.103 555.826 475.011 542.166 474.801 527.609C474.759 523.191 473.515 518.87 471.204 515.113L467.863 519.752C464.024 525.102 459.688 530.17 456.472 535.879C451.429 544.814 449.129 554.357 452.928 564.627C454.502 568.953 455.698 573.409 456.503 577.943C456.868 579.95 455.889 582.207 455.524 584.355L454.342 584.316C453.915 583.457 453.449 582.614 453.06 581.739C449.455 573.515 445.912 565.276 442.236 557.083C439.727 551.483 436.37 546.282 435.756 539.901C435.065 532.724 434.295 525.773 436.704 518.604C440.115 508.451 442.617 497.986 441.281 487.146C440.154 478.032 438.46 468.98 436.96 459.905C436.852 459.264 436.269 458.702 435.492 457.421L434.373 461.248C432.757 466.715 431.358 472.299 429.486 477.696C424.279 492.714 422.407 507.506 431.871 521.634C434.925 526.187 433.689 530.803 433.13 535.965C432.601 535.325 432.353 535.106 432.213 534.848C425.857 525.398 420.604 515.089 411.117 508.084C410.068 507.303 409.633 505.405 409.345 503.945C408.366 498.993 407.978 493.901 406.649 489.059C403.222 476.563 391.512 469.784 378.925 472.252C368.66 474.267 358.497 477.352 347.789 475.915C346.235 475.704 344.464 476.259 342.847 476.696C340.074 477.399 339.141 479.679 341.161 481.585C346.896 486.997 352.755 492.292 358.823 497.314C361.372 499.423 364.93 500.313 367.417 502.476C370.898 505.491 374.83 506.381 379.127 506.787C380.998 506.994 382.858 507.299 384.698 507.701C386.835 508.123 388.948 508.998 391.085 509.045C396.221 509.162 401.373 508.67 406.493 508.92C408.643 509.107 410.68 509.964 412.321 511.372C415.203 513.873 417.809 516.68 420.091 519.744C422.927 523.587 425.282 527.788 428.219 532.427C424.388 531.475 421.715 530.709 419.003 530.17C414.792 529.327 410.542 528.608 406.307 527.874C401.287 526.999 396.283 525.726 391.225 525.414C387.262 525.172 383.175 525.867 379.243 526.625C370.043 528.397 360.89 530.42 351.729 532.435C349.744 532.965 347.788 533.602 345.87 534.341C346.88 535.45 347.168 535.981 347.611 536.231C355.56 540.729 363.477 545.298 371.535 549.593C373.888 550.867 376.468 551.663 379.127 551.936C385.343 552.467 391.373 551.819 396.773 548.195C398.346 547.128 400.039 546.25 401.816 545.579C407.371 543.564 411.575 539.808 415.258 535.356C417.752 532.341 420.161 531.498 423.805 532.771C429.61 534.809 432.415 539.8 434.8 544.853C438.6 552.944 442.027 561.215 445.578 569.423C447.551 573.991 449.463 578.599 451.724 584.043C447.575 581.45 444.233 579.505 441.079 577.287C440.224 576.686 439.766 575.304 439.431 574.163C437.722 568.493 435.741 563.073 429.967 560.106C429.105 559.66 428.522 558.504 427.994 557.567C425.282 552.764 420.954 550.218 416.136 551.148C406.812 552.952 399.819 559.043 391.73 564.612C400.775 570.493 404.939 580.692 414.264 585.464C415.319 586.019 416.473 586.356 417.659 586.456C422.663 586.792 426.541 584.019 430.667 581.731C433.425 580.169 437.124 577.881 439.532 578.654C445.966 580.724 451.903 584.73 454.296 591.454C457.878 601.56 460.613 611.971 463.682 622.264C464.319 624.373 464.848 626.521 465.594 629.293C461.981 626.771 459.144 624.412 455.974 622.702C453.503 621.366 451.802 619.671 451.149 617.047C448.896 608.019 440.861 605.059 432.617 605.59C424.147 606.137 415.709 607.152 407.255 607.933C404.147 608.222 403.214 609.667 405.266 611.987C409.244 616.477 413.191 621.397 418.157 624.521C426.587 629.824 435.694 629.832 444.373 624.154C445.28 623.527 446.316 623.113 447.404 622.944C455.547 621.999 465.477 629.192 467.187 637.244C468.539 643.617 470.341 649.974 470.87 656.433C471.507 664.242 471.017 672.162 471.017 680.034L470.186 680.393C468.422 677.121 465.928 674.028 465.058 670.529C463.861 665.726 463.589 660.619 463.504 655.628C463.418 651.364 462.898 647.521 459.222 644.89C455.891 642.635 453.179 639.573 451.335 635.986C451.009 635.33 449.781 635.119 448.6 634.495C448.6 641.258 448.064 647.451 448.732 653.504C449.704 662.329 453.806 670.108 461.033 675.145C466.518 678.972 470.878 683.189 473.007 689.468C474.902 695.06 476.822 700.699 477.956 706.47C478.152 707.503 478.289 708.546 478.368 709.594H480.054C481.608 699.66 486.434 691.038 494.608 683.611C502.378 676.543 509.55 668.772 518.812 663.524C519.317 663.273 519.754 662.903 520.086 662.446C521.368 660.408 523.14 658.463 523.668 656.198C524.399 653.074 523.832 649.685 524.445 646.537C525.059 643.39 523.668 642.992 521.267 643.312C520.284 643.451 519.314 643.676 518.369 643.984C504.903 648.388 490.894 661.251 490.233 679.409C489.969 686.579 485.672 691.905 481.235 698.153C481.012 697.125 480.88 696.08 480.839 695.029C481.826 685.759 482.743 676.48 483.947 667.241C484.28 664.224 485.148 661.29 486.511 658.58C493.434 645.764 504.647 637.291 516.396 629.379C523.14 624.826 529.737 620.046 536.303 615.235C538.634 613.541 540.437 611.33 539.924 608.105C539.085 602.833 537.639 597.554 541.439 592.306C536.987 592.267 533.102 590.884 530.203 595.391C528.346 598.28 525.316 600.397 522.845 602.904C515.16 610.714 507.934 618.758 507.017 630.496C507.017 631.058 506.38 631.613 505.968 632.105C504.981 633.3 503.948 634.448 502.93 635.619L487.871 652.988C487.442 652.006 487.336 650.912 487.568 649.864C488.26 645.772 488.78 641.633 489.751 637.595C490.273 635.12 491.262 632.768 492.665 630.668C496.348 625.607 500.435 620.859 504.321 615.915C505.455 614.564 506.186 612.918 506.43 611.167C506.673 609.416 506.419 607.632 505.696 606.02C503.365 600.764 504.391 595.758 505.898 590.705C502.922 588.362 502.634 587.385 504.126 583.863C505.083 581.343 506.245 578.906 507.6 576.577C509.561 573.37 512.145 570.594 515.197 568.412C518.248 566.231 521.705 564.688 525.362 563.878C530.13 562.756 534.748 561.065 539.116 558.84C546.373 555.115 550.219 548.445 552.636 540.37C551.672 540.143 550.53 539.589 549.458 539.667C545.705 540.05 541.96 540.573 538.245 541.229C536.933 541.515 535.708 542.112 534.671 542.971C529.178 547.422 523.886 552.007 520.871 558.762C518.61 563.823 513.303 568.876 508.26 571.258C510.84 564.604 512.922 558.52 515.525 552.647C520.296 541.784 525.339 531.037 530.289 520.252C534.578 510.88 542.861 506.694 551.851 503.445C552.898 503.077 554.042 503.096 555.076 503.5C560.157 505.889 565.053 508.701 570.212 510.895C573.916 512.433 577.767 513.585 581.704 514.332C594.137 516.737 605.015 512.083 615.645 506.483C616.538 506.014 617.199 505.085 618.411 503.945C616.701 503.25 615.551 502.898 614.526 502.383C611.146 500.579 607.532 499.142 604.619 496.83ZM470.909 646.327C470.046 642.5 468.951 638.657 468.717 634.776C468.313 627.786 469.844 621.116 474.157 615.399C476.239 612.611 478.694 610.089 480.987 607.449L481.569 607.839C479.899 611.042 478.018 614.15 476.604 617.461C473.115 625.623 471.942 634.01 474.421 642.781C475.343 646.257 475.91 649.818 476.115 653.41C476.278 655.612 475.602 657.885 475.338 660.127H474.359C473.146 655.503 471.942 650.934 470.909 646.327ZM477.964 697.731C472.626 689.64 472.797 680.549 474.452 671.326C475.299 666.578 475.874 661.712 477.366 657.159C479.821 649.654 483.582 642.711 487.902 635.721L477.964 697.731ZM504.616 575.842C497.522 560.551 502.697 545.064 519.776 537.402C514.655 550.413 509.659 563.089 504.624 575.842H504.616Z" fill="#FFDA47"/>
<path d="M1.8086 458.816C-3.94571 454.301 -10.6871 451.227 -17.8578 449.85C-29.3422 447.508 -39.3814 450.467 -46.7553 459.683C-51.4175 465.525 -58.8147 465.205 -64.3005 469.203C-62.8923 466.54 -61.21 464.032 -59.2809 461.722C-57.2374 459.074 -54.4012 456.692 -53.36 453.685C-49.8479 443.618 -42.4273 439.565 -32.6135 438.393C-28.3883 437.993 -24.1938 437.315 -20.0568 436.363C-14.2292 434.879 -9.1785 432.216 -7.83425 425.429C-7.45574 424.158 -6.62622 423.072 -5.50319 422.375C-2.09983 420.259 1.49002 418.47 4.94 416.401C6.09988 415.756 7.0171 414.746 7.55081 413.527C8.69303 409.903 11.5913 408.005 14.2643 405.85C14.9714 405.287 15.8183 404.873 17.4423 403.835C13.9923 403.835 11.4204 404.436 10.1616 401.367C9.9518 400.859 7.83052 400.586 6.95249 401.008C4.08527 402.366 1.44341 401.945 -1.48597 401.148C-11.1988 398.508 -20.7484 399.586 -29.3655 404.647C-39.8243 410.77 -44.533 420.962 -46.9574 432.489C-47.6878 435.965 -48.5114 439.604 -50.2131 442.642C-52.855 447.328 -56.2816 451.53 -59.4208 455.919C-60.1423 456.795 -60.921 457.622 -61.7518 458.394L-62.8164 457.973C-62.5444 455.372 -62.6143 452.678 -61.9228 450.163C-60.8039 446.172 -58.9779 442.353 -57.8201 438.393C-56.8644 435.09 -55.7299 431.583 -55.9086 428.241C-56.3927 419.026 -60.3062 410.331 -66.8724 403.882C-71.1228 399.602 -75.8859 395.869 -78.6987 390.347C-78.7609 390.222 -79.095 390.246 -80.2527 389.996C-81.7446 394.369 -83.9125 398.766 -84.6274 403.382C-85.5152 408.547 -85.5546 413.823 -84.744 419.001C-82.4751 431.497 -74.5727 441.002 -66.6238 450.303C-63.1039 454.435 -62.4512 459.105 -65.0697 463.869C-67.6883 468.633 -70.0038 473.382 -72.4748 478.13C-72.739 478.646 -73.1275 479.106 -73.9822 480.34V471.375L-78.6832 473.796C-78.7609 472.593 -78.8075 471.882 -78.8541 471.179L-79.6311 470.554C-82.7392 473.499 -86.5311 476.021 -88.8233 479.497C-91.7216 483.902 -93.5942 489.033 -95.5368 493.992C-96.7023 496.96 -97.9922 500.279 -97.7435 503.317C-97.254 509.315 -101.318 513.47 -102.833 518.796C-104.069 516.805 -105.11 514.805 -105.288 512.728C-105.778 507.042 -106.065 501.333 -106.104 495.624C-106.104 491.54 -106.182 487.299 -105.18 483.402C-102.973 474.811 -102.406 466.509 -107.441 458.769C-109.43 455.708 -112.406 453.302 -114.38 450.233C-116.244 447.336 -118.591 446.211 -122.616 446.328C-123.867 452.139 -125.561 457.879 -126.229 463.744C-126.75 468.344 -127.084 473.46 -125.6 477.669C-123.354 484.027 -119.516 489.814 -116.206 495.765C-115.724 496.616 -114.457 497.178 -113.439 497.53C-112.033 497.989 -110.806 498.882 -109.932 500.082C-109.059 501.282 -108.584 502.728 -108.575 504.215C-108.218 513.282 -105.048 521.584 -102.134 529.941C-100.036 535.962 -98.6527 541.796 -101.838 547.841C-102.841 549.747 -103.268 552.144 -104.675 553.62C-108.451 557.588 -112.624 561.172 -116.633 564.913C-117.325 565.554 -118.001 566.21 -118.677 566.866L-119.384 566.413C-115.724 560.595 -110.922 555.221 -110.984 547.849C-110.931 544.251 -111.62 540.682 -113.008 537.366C-114.396 534.05 -116.453 531.059 -119.049 528.582C-119.643 529.817 -120.162 531.087 -120.604 532.385C-121.988 537.762 -125.123 542.518 -129.508 545.896C-130.551 546.751 -131.511 547.703 -132.375 548.739C-138.258 555.417 -138.778 561.336 -135.017 569.427C-132.383 575.097 -131.233 581.095 -134.877 587.32C-135.296 586.622 -135.667 585.897 -135.989 585.149C-139.027 575.988 -141.972 566.788 -145.072 557.65C-147.691 549.926 -146.665 542.882 -141.754 536.368C-140.32 534.646 -139.058 532.786 -137.986 530.815C-131.707 517.812 -127.799 504.153 -128.009 489.595C-128.051 485.178 -129.295 480.857 -131.606 477.099L-134.947 481.738C-138.786 487.088 -143.122 492.157 -146.339 497.866C-151.381 506.8 -153.681 516.344 -149.882 526.614C-148.308 530.94 -147.112 535.395 -146.307 539.93C-145.942 541.937 -146.921 544.194 -147.287 546.342L-148.468 546.302C-148.895 545.443 -149.361 544.6 -149.75 543.725C-153.355 535.501 -156.898 527.262 -160.574 519.069C-163.083 513.47 -166.44 508.268 -167.054 501.888C-167.746 494.71 -168.515 487.76 -166.106 480.59C-162.695 470.437 -160.193 459.972 -161.529 449.132C-162.656 440.018 -164.35 430.966 -165.85 421.891C-165.958 421.251 -166.541 420.688 -167.318 419.408L-168.437 423.234C-170.053 428.701 -171.452 434.285 -173.325 439.682C-178.531 454.7 -180.403 469.492 -170.939 483.62C-167.885 488.174 -169.121 492.789 -169.68 497.952C-170.209 497.311 -170.457 497.092 -170.597 496.835C-176.953 487.385 -182.206 477.076 -191.693 470.07C-192.742 469.289 -193.177 467.391 -193.465 465.931C-194.444 460.98 -194.833 455.888 -196.161 451.045C-199.588 438.55 -211.298 431.771 -223.885 434.239C-234.15 436.253 -244.313 439.338 -255.021 437.901C-256.575 437.691 -258.346 438.245 -259.963 438.682C-262.737 439.385 -263.669 441.666 -261.649 443.571C-255.914 448.984 -250.056 454.279 -243.987 459.3C-241.438 461.409 -237.88 462.299 -235.393 464.463C-231.912 467.477 -227.98 468.368 -223.683 468.774C-221.812 468.981 -219.952 469.286 -218.112 469.688C-215.975 470.109 -213.862 470.984 -211.725 471.031C-206.589 471.148 -201.437 470.656 -196.317 470.906C-194.167 471.093 -192.13 471.951 -190.489 473.358C-187.607 475.86 -185.001 478.667 -182.719 481.73C-179.883 485.573 -177.528 489.775 -174.591 494.414C-178.422 493.461 -181.095 492.695 -183.807 492.157C-188.018 491.313 -192.268 490.595 -196.503 489.86C-201.523 488.986 -206.527 487.713 -211.585 487.4C-215.548 487.158 -219.635 487.853 -223.567 488.611C-232.767 490.384 -241.92 492.407 -251.081 494.421C-253.066 494.952 -255.022 495.588 -256.94 496.327C-255.93 497.436 -255.642 497.967 -255.199 498.217C-247.25 502.716 -239.333 507.284 -231.275 511.58C-228.922 512.853 -226.342 513.65 -223.683 513.923C-217.467 514.454 -211.438 513.806 -206.037 510.182C-204.464 509.114 -202.771 508.236 -200.994 507.565C-195.439 505.551 -191.235 501.794 -187.552 497.342C-185.058 494.328 -182.649 493.484 -179.005 494.757C-173.2 496.796 -170.395 501.786 -168.01 506.839C-164.21 514.93 -160.783 523.201 -157.232 531.409C-155.259 535.978 -153.347 540.586 -151.086 546.029C-155.235 543.436 -158.577 541.492 -161.731 539.274C-162.586 538.672 -163.045 537.29 -163.379 536.15C-165.088 530.48 -167.07 525.06 -172.843 522.092C-173.705 521.647 -174.288 520.491 -174.816 519.554C-177.528 514.751 -181.856 512.205 -186.674 513.134C-195.998 514.938 -202.991 521.03 -211.08 526.598C-202.036 532.479 -197.871 542.679 -188.546 547.451C-187.492 548.005 -186.337 548.342 -185.151 548.442C-180.147 548.778 -176.269 546.006 -172.143 543.717C-169.385 542.155 -165.686 539.867 -163.278 540.64C-156.844 542.71 -150.907 546.716 -148.514 553.441C-144.932 563.547 -142.197 573.957 -139.128 584.251C-138.491 586.359 -137.962 588.507 -137.216 591.28C-140.829 588.757 -143.666 586.398 -146.836 584.688C-149.307 583.353 -151.008 581.658 -151.661 579.034C-153.915 570.005 -161.949 567.045 -170.193 567.577C-178.663 568.123 -187.101 569.139 -195.555 569.92C-198.663 570.208 -199.596 571.653 -197.544 573.973C-193.566 578.464 -189.619 583.384 -184.654 586.508C-176.223 591.811 -167.116 591.818 -158.437 586.141C-157.53 585.513 -156.494 585.099 -155.406 584.93C-147.263 583.985 -137.333 591.178 -135.623 599.23C-134.271 605.603 -132.469 611.96 -131.94 618.419C-131.303 626.229 -131.793 634.148 -131.793 642.02L-132.624 642.38C-134.388 639.107 -136.882 636.014 -137.752 632.516C-138.949 627.713 -139.221 622.605 -139.306 617.614C-139.392 613.35 -139.913 609.508 -143.588 606.876C-146.919 604.621 -149.631 601.559 -151.475 597.973C-151.801 597.317 -153.029 597.106 -154.21 596.481C-154.21 603.244 -154.746 609.437 -154.078 615.49C-153.106 624.315 -149.004 632.094 -141.777 637.131C-136.292 640.958 -131.933 645.175 -129.803 651.455C-127.908 657.046 -125.988 662.685 -124.854 668.457C-124.658 669.489 -124.521 670.532 -124.442 671.581H-122.756C-121.202 661.647 -116.377 653.024 -108.202 645.597C-100.432 638.529 -93.2601 630.758 -83.998 625.51C-83.4934 625.259 -83.0564 624.889 -82.7237 624.432C-81.4416 622.394 -79.67 620.449 -79.1416 618.185C-78.4112 615.061 -78.9784 611.671 -78.3646 608.524C-77.7507 605.376 -79.1416 604.978 -81.5426 605.298C-82.5262 605.437 -83.496 605.662 -84.4409 605.97C-97.9067 610.375 -111.916 623.238 -112.577 641.395C-112.841 648.565 -117.138 653.891 -121.575 660.139C-121.798 659.112 -121.93 658.066 -121.971 657.015C-120.984 647.745 -120.067 638.467 -118.863 629.228C-118.53 626.21 -117.662 623.276 -116.299 620.567C-109.376 607.751 -98.1631 599.277 -86.4145 591.365C-79.67 586.812 -73.0731 582.033 -66.5072 577.222C-64.1762 575.527 -62.3735 573.317 -62.8863 570.091C-63.7255 564.82 -65.1708 559.54 -61.3711 554.292C-65.8235 554.253 -69.7085 552.871 -72.6068 557.377C-74.4639 560.267 -77.4943 562.383 -79.9653 564.89C-87.65 572.7 -94.8763 580.744 -95.7932 592.482C-95.7932 593.045 -96.4304 593.599 -96.8422 594.091C-97.829 595.286 -98.8624 596.434 -99.8803 597.606L-114.939 614.975C-115.368 613.992 -115.474 612.898 -115.242 611.851C-114.551 607.758 -114.03 603.619 -113.059 599.581C-112.537 597.106 -111.548 594.755 -110.145 592.654C-106.462 587.593 -102.375 582.845 -98.4895 577.901C-97.355 576.55 -96.6239 574.904 -96.3805 573.153C-96.1371 571.402 -96.3915 569.618 -97.1141 568.006C-99.4452 562.75 -98.4195 557.744 -96.9121 552.691C-99.8881 550.348 -100.176 549.372 -98.6837 545.849C-97.7267 543.329 -96.565 540.892 -95.2104 538.563C-93.2487 535.357 -90.6651 532.58 -87.6135 530.398C-84.5618 528.217 -81.1046 526.675 -77.4477 525.864C-72.6798 524.742 -68.0625 523.051 -63.6944 520.827C-56.437 517.101 -52.5908 510.432 -50.1742 502.356C-51.1377 502.13 -52.2799 501.575 -53.3522 501.653C-57.1053 502.036 -60.8505 502.559 -64.5647 503.215C-65.8771 503.501 -67.1025 504.099 -68.139 504.957C-73.6325 509.409 -78.924 513.993 -81.9389 520.749C-84.2 525.809 -89.5071 530.862 -94.55 533.244C-91.9703 526.59 -89.8878 520.506 -87.2848 514.633C-82.5139 503.77 -77.471 493.023 -72.5214 482.238C-68.2322 472.866 -59.9492 468.68 -50.959 465.431C-49.9119 465.063 -48.7686 465.083 -47.7344 465.486C-42.6526 467.876 -37.7574 470.687 -32.598 472.882C-28.8944 474.42 -25.0435 475.571 -21.1058 476.318C-8.67343 478.724 2.20488 474.069 12.8346 468.469C13.7281 468.001 14.3886 467.071 15.6008 465.931C13.8913 465.236 12.7413 464.885 11.7156 464.369C8.33559 462.565 4.72244 461.128 1.8086 458.816ZM-131.901 608.313C-132.764 604.486 -133.86 600.644 -134.093 596.762C-134.497 589.772 -132.966 583.103 -128.653 577.386C-126.571 574.598 -124.116 572.075 -121.823 569.435L-121.241 569.826C-122.911 573.028 -124.792 576.136 -126.206 579.448C-129.695 587.609 -130.868 595.997 -128.389 604.767C-127.467 608.243 -126.9 611.805 -126.695 615.396C-126.532 617.599 -127.208 619.872 -127.472 622.113H-128.451C-129.664 617.49 -130.868 612.921 -131.901 608.313ZM-124.846 659.717C-130.184 651.626 -130.013 642.536 -128.358 633.312C-127.511 628.564 -126.936 623.698 -125.444 619.145C-122.989 611.64 -119.228 604.697 -114.908 597.707L-124.846 659.717ZM-98.1942 537.829C-105.288 522.537 -100.113 507.05 -83.0345 499.389C-88.1551 512.4 -93.1513 525.075 -98.1864 537.829H-98.1942Z" fill="#FFDA47"/>
<path fill-rule="evenodd" clip-rule="evenodd" d="M10.5174 -13.6145C10.0144 -13.2141 9.51829 -12.768 9.05709 -12.2689C5.42594 -8.35925 3.32195 -2.14328 8.01276 3.85229C8.69729 4.73087 9.63179 5.38858 10.6897 5.7499C11.6769 6.08682 12.6634 6.28475 13.636 6.35447C14.2018 6.6966 14.8324 6.93583 15.4919 7.06392C18.8425 7.70631 23.0992 6.34359 25.9246 4.09502C28.5388 2.01447 29.8137 -0.75357 29.8889 -2.85312C29.8937 -2.96698 29.894 -3.07728 29.8898 -3.18398C29.8706 -4.09315 29.6602 -5.26097 29.06 -6.52216C30.2575 -12.0608 28.0436 -16.88 23.2308 -18.6037C23.1322 -18.6354 23.0336 -18.6671 22.9351 -18.6987C21.7454 -19.0505 20.4409 -19.0761 19.1285 -18.78C18.2405 -18.9831 17.2933 -19.095 16.2766 -19.1003C14.4593 -19.1067 12.7481 -18.2511 11.656 -16.8024C10.957 -15.8646 10.5697 -14.7566 10.5174 -13.6145Z" fill="#287554"/>
<path fill-rule="evenodd" clip-rule="evenodd" d="M-6.12903 3.23729C-10.6814 6.26596 -12.9067 11.5365 -9.57526 16.9118C-9.22346 17.4829 -8.77381 17.9835 -8.25215 18.3901L-8.15316 18.5974C-7.34529 20.3316 -5.72651 21.5453 -3.84001 21.8414C-1.25087 22.2461 3.51133 21.002 6.69756 18.2388C8.45601 16.7147 9.71681 14.8235 10.2823 12.796C10.3563 12.6124 10.4222 12.4279 10.4801 12.2424C11.5962 8.74958 10.9821 5.23975 9.0228 2.88847C7.1967 0.695323 3.7206 -1.35862 -2.45633 0.255632C-4.05238 0.674752 -5.38484 1.75722 -6.12825 3.22928L-6.12903 3.23729Z" fill="#287554"/>
<path fill-rule="evenodd" clip-rule="evenodd" d="M8.39899 39.0762C11.8122 38.018 14.8832 36.1609 16.7229 34.0658C18.9528 31.5208 19.7582 28.5687 19.0728 25.5778C19.0506 25.4854 19.0285 25.3929 18.9983 25.2996C18.4252 23.2611 16.5882 20.7686 13.7507 18.9548C10.3072 16.7575 5.55385 15.588 2.06594 16.4049C2.03276 16.4093 2.00321 16.4181 1.9736 16.427C-1.33592 17.2559 -5.04693 19.7838 -7.94325 23.1233C-10.7685 26.3769 -12.7689 30.3167 -13.2838 33.5879C-13.4788 34.8363 -13.2562 36.1118 -12.6547 37.2179C-11.1814 39.9266 -8.63851 41.6373 -5.29303 42.181C-2.25225 42.6738 1.71213 42.0501 5.3802 40.5469C6.42578 40.1183 7.43737 39.6287 8.39899 39.0762Z" fill="#287554"/>
<path fill-rule="evenodd" clip-rule="evenodd" d="M13.5438 12.1726C12.7774 13.5235 12.2807 14.9459 12.1077 16.3235C12.1004 16.388 12.0932 16.4525 12.0868 16.509C11.7089 20.5515 13.4372 24.1431 16.1448 26.6325C17.1124 29.01 18.8641 30.8515 21.5324 31.8535C21.5906 31.8805 21.6497 31.8995 21.7089 31.9185C27.0119 33.7143 32.3722 30.6958 35.0344 24.9233C38.2285 17.9938 36.7337 8.57429 28.9784 5.78062C25.5751 3.62471 21.4075 3.08968 17.4243 5.1004C16.3713 5.63029 15.5074 6.47182 14.9525 7.50774C14.2688 8.77822 13.9888 9.62466 13.8822 9.95164C13.6725 10.6101 13.5414 11.3674 13.5438 12.1726Z" fill="#287554"/>
<path fill-rule="evenodd" clip-rule="evenodd" d="M33.6714 -4.84438L33.4265 -4.45148C33.2491 -4.1489 33.0753 -3.84186 32.842 -3.40673L33.0852 -3.82033C32.9366 -3.59208 32.8229 -3.31082 32.5978 -2.91153C32.0673 -1.98314 31.8254 -0.968861 31.8426 0.0299519C29.074 3.89875 27.3276 9.4853 29.2249 14.6812C29.842 16.3692 31.214 17.6692 32.9314 18.1954C34.6917 18.7387 40.0145 19.1762 45.1444 17.5001C50.6862 15.687 55.8792 11.6935 57.011 4.14556C57.1569 3.18572 57.0564 2.20193 56.7144 1.29285C56.6236 1.04965 56.521 0.801039 56.4051 0.563156C56.6412 -0.974743 56.498 -2.4455 56.0289 -3.78167C54.9509 -6.84168 51.3029 -10.725 41.5506 -10.5794C41.4932 -10.5778 41.4439 -10.5752 41.3865 -10.5735C40.3518 -10.5277 39.1523 -10.2189 37.9616 -9.52079C36.727 -8.79502 35.4004 -7.51182 34.5213 -6.24721C34.1911 -5.82308 33.9165 -5.34762 33.6714 -4.84438Z" fill="#287554"/>
<path fill-rule="evenodd" clip-rule="evenodd" d="M28.6395 -30.507C26.7728 -29.4323 25.068 -27.8407 23.7014 -25.6306C23.6708 -25.5769 23.6357 -25.5196 23.6086 -25.4614C22.2677 -23.1176 21.9904 -19.4926 23.2776 -15.8655C24.9048 -11.2763 28.9135 -7.07824 32.9564 -6.16513C33.012 -6.15064 33.0685 -6.14432 33.1204 -6.13433C33.5317 -6.0508 33.9673 -6.00119 34.4227 -5.98211C35.4952 -5.39034 36.6993 -5.02058 38.0017 -4.9052C39.6887 -4.75835 41.3552 -5.36565 42.5569 -6.55682C43.1421 -7.13989 43.585 -7.83716 43.8756 -8.59671C44.6531 -9.03942 45.4003 -9.53863 46.0947 -10.0766C49.114 -12.4134 50.9919 -15.4561 51.3659 -17.9915C51.375 -18.0354 51.3805 -18.0838 51.3851 -18.1242C52.1483 -24.2269 47.1894 -31.2417 41.4138 -33.0136C41.1531 -33.0923 40.8861 -33.1513 40.6208 -33.1896C39.4094 -34.1771 37.846 -34.6203 36.2998 -34.4243C34.3276 -34.1827 33.0582 -33.8695 32.4282 -33.6102C32.4147 -33.5995 32.4022 -33.5969 32.3896 -33.5942C31.1358 -33.0586 29.6891 -31.834 28.6395 -30.507Z" fill="#287554"/>
<path fill-rule="evenodd" clip-rule="evenodd" d="M50.776 -16.9772C50.2444 -15.6077 49.7804 -14.0426 49.4955 -12.3632C48.7137 -7.78641 49.1927 -2.54748 51.9979 1.383C53.0163 2.81023 54.636 3.6929 56.3868 3.78163C57.4634 3.83457 58.6938 3.68445 59.9965 3.33003C60.7983 3.57235 61.6411 3.6354 62.4761 3.5138C65.634 3.04754 70.6841 1.03143 73.3084 -2.53917C73.3516 -2.59555 73.3948 -2.65191 73.4299 -2.7092C75.1649 -5.24923 75.7904 -7.98476 75.5695 -10.6409C77.2521 -14.8048 76.9776 -18.9297 74.6247 -21.9876C74.5639 -22.064 74.5067 -22.1358 74.4414 -22.2086C72.6179 -24.3524 68.5711 -26.2383 64.2384 -26.7227C59.9056 -27.2071 55.5612 -26.2588 53.3389 -24.6077C52.2017 -23.7687 51.4195 -22.5298 51.1354 -21.1445L50.7631 -19.3074C50.6051 -18.5287 50.6094 -17.7397 50.776 -16.9772Z" fill="#287554"/>
<path fill-rule="evenodd" clip-rule="evenodd" d="M52.6994 16.2679C51.4715 22.4322 53.5179 28.2579 58.9539 30.3221C59.0282 30.351 59.107 30.3765 59.1813 30.4053C61.3778 31.1371 64.5773 30.9901 67.8171 29.6956C71.6781 28.149 75.5447 25.0424 77.2578 21.9401C77.2821 21.9061 77.3028 21.8676 77.32 21.8246C78.9119 18.7822 79.1179 12.9103 77.4946 8.17858C76.1738 4.34332 73.6977 1.43484 71.0038 0.262468C70.9178 0.22818 70.8319 0.193811 70.7459 0.159523C67.7919 -0.952548 64.3681 -0.663552 61.2154 0.869623C57.263 2.78987 53.9081 6.67778 52.8495 10.455C52.835 10.5105 52.8205 10.5662 52.806 10.6217C52.3702 12.4066 52.3689 14.3592 52.6994 16.2679Z" fill="#287554"/>
<path fill-rule="evenodd" clip-rule="evenodd" d="M29.8087 29.3116C29.1474 31.6428 29.046 34.1519 29.5135 36.4725C30.715 42.435 35.1425 46.219 40.8123 45.1845C40.8661 45.1783 40.9163 45.1677 40.971 45.1535C45.0481 44.2933 47.6974 41.4731 48.6922 37.754L50.5958 37.0022C53.1796 35.9804 54.6587 33.2479 54.1061 30.5254C53.6821 28.3977 52.4298 26.188 50.5103 24.3847C48.7313 22.7116 46.3901 21.42 43.9593 20.8087C42.7181 20.2264 41.4304 19.9819 40.2164 20.0236C39.6506 20.041 39.1078 20.1428 38.5937 20.3172L38.4191 20.2728C37.4468 20.056 34.904 20.0693 34.3733 20.0662C31.481 20.0642 29.0361 22.2007 28.6648 25.0715C28.4627 26.6337 28.9079 28.1429 29.8087 29.3116Z" fill="#287554"/>
<path fill-rule="evenodd" clip-rule="evenodd" d="M58.4383 28.7003C57.637 28.6337 56.7682 28.6575 55.8229 28.7788C55.6902 28.7964 55.5566 28.822 55.423 28.8476C53.0476 29.3293 50.3201 31.1111 48.2641 34.0313C45.8814 37.417 44.3798 42.2877 44.9795 46.5721C45.1469 47.7228 45.6498 48.7973 46.4348 49.6547C49.2923 52.7658 55.3722 55.8143 61.8917 53.1277C61.9769 53.0965 62.0586 53.0609 62.1447 53.0217C66.3825 51.0358 68.8217 47.297 69.7365 43.3115C70.6213 39.4451 69.9421 35.4295 68.5025 32.8554C66.2623 28.842 62.612 27.2055 58.4383 28.7003Z" fill="#287554"/>
<path fill-rule="evenodd" clip-rule="evenodd" d="M96.017 39.1998C97.208 38.3547 98.3263 37.5014 99.3353 36.6765C101.696 34.7387 103.479 32.8578 104.403 31.4104C105.359 29.9093 105.727 28.5008 105.785 27.3758C105.789 27.2332 105.793 27.0907 105.789 26.9472C105.746 25.0957 104.635 22.3629 101.602 20.294C98.365 18.0793 92.3343 16.1068 87.9557 16.3853C87.9521 16.3808 87.9477 16.3843 87.9477 16.3843C85.0791 16.5688 83.0316 17.5454 81.9197 18.3055L81.8686 18.3243C78.3826 19.4478 74.5334 22.6871 71.8315 26.7596C69.091 30.8849 67.6326 35.7361 68.0553 39.4203C68.0641 39.4866 68.0766 39.5574 68.0845 39.6319C68.7521 44.0016 71.8324 47.5958 75.839 49.4036C79.8026 51.1942 84.5098 51.1532 88.176 48.9471C88.247 48.898 88.3171 48.8569 88.388 48.8078C91.6049 46.6732 94.3359 43.0983 96.017 39.1998Z" fill="#287554"/>
<path fill-rule="evenodd" clip-rule="evenodd" d="M65.2547 56.4977C64.822 57.0695 64.4367 57.6916 64.0988 58.3641C63.6679 58.597 63.193 58.8576 62.6704 59.1413C60.9754 60.0721 59.8636 61.8007 59.7144 63.7243L59.353 68.3406C59.239 69.8107 59.6898 71.2715 60.6184 72.4107C61.733 73.7835 63.2065 74.6945 64.8568 75.1272C65.0748 75.438 65.3 75.721 65.5315 75.9843C67.0559 77.6692 68.9284 78.5561 70.93 78.702C71.0313 78.7094 71.129 78.7123 71.2267 78.7153C74.5447 78.782 77.4969 77.0708 79.2058 73.5391C80.6832 71.8278 81.5851 69.3932 81.5204 66.6567C81.4855 65.2024 81.1709 63.7286 80.6168 62.3501C80.8371 59.6215 80.0343 56.9441 77.8664 54.8469C76.9994 53.0938 75.9089 51.4377 74.592 49.9766C72.5124 47.677 68.9851 47.4394 66.6166 49.4416C64.5321 51.2106 64.0207 54.1635 65.2547 56.4977Z" fill="#287554"/>
<path fill-rule="evenodd" clip-rule="evenodd" d="M80.7763 69.731C81.0796 72.4537 82.0789 74.6959 83.2985 76.0071C83.3531 76.0664 83.4121 76.1221 83.4666 76.1814C84.7964 77.4929 87.2081 78.5964 90.1074 78.6809C93.2514 78.7687 96.8933 77.6752 99.0451 75.8893C99.054 75.8821 99.0676 75.8713 99.0811 75.8606C99.9724 75.0999 100.702 74.2188 101.249 73.2474C103.399 71.6982 105.423 69.6323 106.855 67.4214C109.07 64.0004 109.741 60.3261 109.059 57.736C108.794 56.7294 108.256 55.8145 107.51 55.0882C104.904 52.5613 100.661 51.1474 96.2988 51.2807C93.2888 51.3797 90.311 52.2015 87.9227 53.5519C86.2535 53.4643 84.4859 53.6677 82.6528 54.2315C81.4675 54.5952 80.4283 55.3268 79.6978 56.3264L78.5371 57.9105C77.6374 59.1401 77.2624 60.6784 77.4962 62.1799C77.685 63.3943 77.8685 64.2241 78.0213 64.7848L77.944 64.4573C78.0733 65.0808 78.5106 66.2663 79.333 67.9082C79.6961 68.6317 80.1903 69.2435 80.7763 69.731Z" fill="#287554"/>
<path fill-rule="evenodd" clip-rule="evenodd" d="M72.4087 78.2234L72.4422 79.1873C71.7113 79.6149 71.0714 80.2122 70.5872 80.9497L69.4531 82.6592C68.0041 84.8395 68.2191 87.7279 69.975 89.6761L74.3291 94.5017C75.9437 96.2909 78.5072 96.8847 80.7428 95.9786C82.9785 95.0725 84.4142 92.8661 84.3288 90.4541L84.1597 85.7243C84.7277 84.8247 85.0451 83.7578 85.0309 82.6245C85.0155 81.2868 84.855 80.2553 84.6149 79.4926L84.5935 79.4289L84.6033 79.4504L84.4797 79.0646C84.3755 78.7587 84.2724 78.4445 84.1683 78.1385L83.8202 77.1388C83.3906 74.3772 81.0102 72.2804 78.1502 72.2821C75.058 72.2778 72.5207 74.7226 72.4106 77.811L72.4087 78.2234Z" fill="#287554"/>
<path fill-rule="evenodd" clip-rule="evenodd" d="M46.862 66.2213C47.5212 66.8559 48.3322 67.3403 49.2658 67.6099C51.1722 68.1616 53.1387 67.6825 54.5538 66.4829C56.5369 65.8218 58.0816 64.0935 58.41 61.8879C58.6289 60.4297 58.6925 59.3666 58.7184 58.7077C58.7359 58.1582 58.7607 57.2581 58.7497 55.9536C58.8008 54.8931 58.5577 53.8318 58.0285 52.881C57.2413 51.4678 55.8938 50.4566 54.3132 50.0931C53.3625 49.8666 52.0464 49.7987 50.5153 50.0781C48.6137 50.4176 46.0777 51.3426 43.9562 52.5027C41.173 54.0207 39.2113 56.1469 38.4641 57.7247C38.2566 58.22 37.9999 59.0039 37.6453 60.2546C36.7759 63.3016 38.5385 66.4844 41.5855 67.3537C43.4929 67.8974 45.4523 67.4092 46.862 66.2213Z" fill="#287554"/>
</g>
<defs>
<radialGradient id="paint0_radial_26_1475" cx="0" cy="0" r="1" gradientUnits="userSpaceOnUse" gradientTransform="translate(490.986 385.352) rotate(-168.972) scale(1488.26 1303.42)">
<stop stop-color="#FFFAD8"/>
<stop offset="1" stop-color="#C3EB81"/>
</radialGradient>
<clipPath id="clip0_26_1475">
<rect width="360" height="604" fill="white"/>
</clipPath>
</defs>
</svg>
